%YAML 1.1
%TAG !u! tag:unity3d.com,2011:
--- !u!78 &1
TagManager:
  serializedVersion: 2
  tags: []
  layers:
  - Default
  - TransparentFX
  - Ignore Raycast
  - 
  - Water
  - UI
  - 
  - 
  - Restricted
  - Player
  - Grabbable
  - 1P
  - 2P
  - 1PGrabbable
  - 2PGrabbable
  - FreeGrabbable
  - 1PZone
  - 2PZone
  - FreeZone
  - 1PInteractable
  - 2PInteractable
  - FreeInteractable
  - GrabInteractable
  - 
  - 
  - 
  - 
  - 
  - 
  - 
  - 
  - 
  m_SortingLayers:
  - name: Default
    uniqueID: 0
    locked: 0
