%YAML 1.1
%TAG !u! tag:unity3d.com,2011:
--- !u!29 &1
OcclusionCullingSettings:
  m_ObjectHideFlags: 0
  serializedVersion: 2
  m_OcclusionBakeSettings:
    smallestOccluder: 5
    smallestHole: 0.25
    backfaceThreshold: 100
  m_SceneGUID: 00000000000000000000000000000000
  m_OcclusionCullingData: {fileID: 0}
--- !u!104 &2
RenderSettings:
  m_ObjectHideFlags: 0
  serializedVersion: 9
  m_Fog: 0
  m_FogColor: {r: 0.5, g: 0.5, b: 0.5, a: 1}
  m_FogMode: 3
  m_FogDensity: 0.01
  m_LinearFogStart: 0
  m_LinearFogEnd: 300
  m_AmbientSkyColor: {r: 0.212, g: 0.227, b: 0.259, a: 1}
  m_AmbientEquatorColor: {r: 0.114, g: 0.125, b: 0.133, a: 1}
  m_AmbientGroundColor: {r: 0.047, g: 0.043, b: 0.035, a: 1}
  m_AmbientIntensity: 1
  m_AmbientMode: 0
  m_SubtractiveShadowColor: {r: 0.42, g: 0.478, b: 0.627, a: 1}
  m_SkyboxMaterial: {fileID: 2100000, guid: 8a9dd7d65456d2143bb45b92da8d67b6, type: 2}
  m_HaloStrength: 0.5
  m_FlareStrength: 1
  m_FlareFadeSpeed: 3
  m_HaloTexture: {fileID: 0}
  m_SpotCookie: {fileID: 10001, guid: 0000000000000000e000000000000000, type: 0}
  m_DefaultReflectionMode: 0
  m_DefaultReflectionResolution: 128
  m_ReflectionBounces: 1
  m_ReflectionIntensity: 1
  m_CustomReflection: {fileID: 0}
  m_Sun: {fileID: 569622176}
  m_IndirectSpecularColor: {r: 0, g: 0, b: 0, a: 1}
  m_UseRadianceAmbientProbe: 0
--- !u!157 &3
LightmapSettings:
  m_ObjectHideFlags: 0
  serializedVersion: 11
  m_GIWorkflowMode: 1
  m_GISettings:
    serializedVersion: 2
    m_BounceScale: 1
    m_IndirectOutputScale: 1
    m_AlbedoBoost: 1
    m_EnvironmentLightingMode: 0
    m_EnableBakedLightmaps: 0
    m_EnableRealtimeLightmaps: 0
  m_LightmapEditorSettings:
    serializedVersion: 12
    m_Resolution: 2
    m_BakeResolution: 40
    m_AtlasSize: 1024
    m_AO: 0
    m_AOMaxDistance: 1
    m_CompAOExponent: 1
    m_CompAOExponentDirect: 0
    m_ExtractAmbientOcclusion: 0
    m_Padding: 2
    m_LightmapParameters: {fileID: 0}
    m_LightmapsBakeMode: 1
    m_TextureCompression: 1
    m_FinalGather: 0
    m_FinalGatherFiltering: 1
    m_FinalGatherRayCount: 256
    m_ReflectionCompression: 2
    m_MixedBakeMode: 2
    m_BakeBackend: 1
    m_PVRSampling: 1
    m_PVRDirectSampleCount: 32
    m_PVRSampleCount: 512
    m_PVRBounces: 2
    m_PVREnvironmentSampleCount: 512
    m_PVREnvironmentReferencePointCount: 2048
    m_PVRFilteringMode: 2
    m_PVRDenoiserTypeDirect: 0
    m_PVRDenoiserTypeIndirect: 0
    m_PVRDenoiserTypeAO: 0
    m_PVRFilterTypeDirect: 0
    m_PVRFilterTypeIndirect: 0
    m_PVRFilterTypeAO: 0
    m_PVREnvironmentMIS: 0
    m_PVRCulling: 1
    m_PVRFilteringGaussRadiusDirect: 1
    m_PVRFilteringGaussRadiusIndirect: 5
    m_PVRFilteringGaussRadiusAO: 2
    m_PVRFilteringAtrousPositionSigmaDirect: 0.5
    m_PVRFilteringAtrousPositionSigmaIndirect: 2
    m_PVRFilteringAtrousPositionSigmaAO: 1
    m_ExportTrainingData: 0
    m_TrainingDataDestination: TrainingData
    m_LightProbeSampleCountMultiplier: 4
  m_LightingDataAsset: {fileID: 0}
  m_UseShadowmask: 1
--- !u!196 &4
NavMeshSettings:
  serializedVersion: 2
  m_ObjectHideFlags: 0
  m_BuildSettings:
    serializedVersion: 2
    agentTypeID: 0
    agentRadius: 0.5
    agentHeight: 2
    agentSlope: 45
    agentClimb: 0.4
    ledgeDropHeight: 0
    maxJumpAcrossDistance: 0
    minRegionArea: 2
    manualCellSize: 0
    cellSize: 0.16666667
    manualTileSize: 0
    tileSize: 256
    accuratePlacement: 0
    debug:
      m_Flags: 0
  m_NavMeshData: {fileID: 0}
--- !u!1 &133538955
GameObject:
  m_ObjectHideFlags: 0
  m_CorrespondingSourceObject: {fileID: 0}
  m_PrefabInstance: {fileID: 0}
  m_PrefabAsset: {fileID: 0}
  serializedVersion: 6
  m_Component:
  - component: {fileID: 133538959}
  - component: {fileID: 133538958}
  - component: {fileID: 133538957}
  - component: {fileID: 133538956}
  m_Layer: 0
  m_Name: Floor
  m_TagString: Untagged
  m_Icon: {fileID: 0}
  m_NavMeshLayer: 0
  m_StaticEditorFlags: 0
  m_IsActive: 1
--- !u!65 &133538956
BoxCollider:
  m_ObjectHideFlags: 0
  m_CorrespondingSourceObject: {fileID: 0}
  m_PrefabInstance: {fileID: 0}
  m_PrefabAsset: {fileID: 0}
  m_GameObject: {fileID: 133538955}
  m_Material: {fileID: 0}
  m_IsTrigger: 0
  m_Enabled: 1
  serializedVersion: 2
  m_Size: {x: 10, y: 0.2, z: 10}
  m_Center: {x: 0, y: -0.1, z: 0}
--- !u!23 &133538957
MeshRenderer:
  m_ObjectHideFlags: 0
  m_CorrespondingSourceObject: {fileID: 0}
  m_PrefabInstance: {fileID: 0}
  m_PrefabAsset: {fileID: 0}
  m_GameObject: {fileID: 133538955}
  m_Enabled: 1
  m_CastShadows: 1
  m_ReceiveShadows: 1
  m_DynamicOccludee: 1
  m_MotionVectors: 1
  m_LightProbeUsage: 1
  m_ReflectionProbeUsage: 1
  m_RayTracingMode: 2
  m_RenderingLayerMask: 1
  m_RendererPriority: 0
  m_Materials:
  - {fileID: 2100000, guid: 3e14a760198d8714288e9921d74985a1, type: 2}
  m_StaticBatchInfo:
    firstSubMesh: 0
    subMeshCount: 0
  m_StaticBatchRoot: {fileID: 0}
  m_ProbeAnchor: {fileID: 0}
  m_LightProbeVolumeOverride: {fileID: 0}
  m_ScaleInLightmap: 1
  m_ReceiveGI: 1
  m_PreserveUVs: 0
  m_IgnoreNormalsForChartDetection: 0
  m_ImportantGI: 0
  m_StitchLightmapSeams: 1
  m_SelectedEditorRenderState: 3
  m_MinimumChartSize: 4
  m_AutoUVMaxDistance: 0.5
  m_AutoUVMaxAngle: 89
  m_LightmapParameters: {fileID: 0}
  m_SortingLayerID: 0
  m_SortingLayer: 0
  m_SortingOrder: 0
--- !u!33 &133538958
MeshFilter:
  m_ObjectHideFlags: 0
  m_CorrespondingSourceObject: {fileID: 0}
  m_PrefabInstance: {fileID: 0}
  m_PrefabAsset: {fileID: 0}
  m_GameObject: {fileID: 133538955}
  m_Mesh: {fileID: 10209, guid: 0000000000000000e000000000000000, type: 0}
--- !u!4 &133538959
Transform:
  m_ObjectHideFlags: 0
  m_CorrespondingSourceObject: {fileID: 0}
  m_PrefabInstance: {fileID: 0}
  m_PrefabAsset: {fileID: 0}
  m_GameObject: {fileID: 133538955}
  m_LocalRotation: {x: 0, y: 0, z: 0, w: 1}
  m_LocalPosition: {x: 1.2128096, y: -1.01, z: 2.1305866}
  m_LocalScale: {x: 1, y: 1, z: 1}
  m_Children: []
  m_Father: {fileID: 0}
  m_RootOrder: 1
  m_LocalEulerAnglesHint: {x: 0, y: 0, z: 0}
--- !u!1001 &155062191
PrefabInstance:
  m_ObjectHideFlags: 0
  serializedVersion: 2
  m_Modification:
    m_TransformParent: {fileID: 1682325115}
    m_Modifications:
    - target: {fileID: 2129587651359434134, guid: e4324f2703548f24eb2562d7b849cfed,
        type: 3}
      propertyPath: m_Name
      value: Joystick
      objectReference: {fileID: 0}
    - target: {fileID: 2129587651359434135, guid: e4324f2703548f24eb2562d7b849cfed,
        type: 3}
      propertyPath: m_LocalPosition.x
      value: -0.609
      objectReference: {fileID: 0}
    - target: {fileID: 2129587651359434135, guid: e4324f2703548f24eb2562d7b849cfed,
        type: 3}
      propertyPath: m_LocalPosition.y
      value: -0.264
      objectReference: {fileID: 0}
    - target: {fileID: 2129587651359434135, guid: e4324f2703548f24eb2562d7b849cfed,
        type: 3}
      propertyPath: m_LocalPosition.z
      value: 0.027
      objectReference: {fileID: 0}
    - target: {fileID: 2129587651359434135, guid: e4324f2703548f24eb2562d7b849cfed,
        type: 3}
      propertyPath: m_LocalRotation.x
      value: -0.67691463
      objectReference: {fileID: 0}
    - target: {fileID: 2129587651359434135, guid: e4324f2703548f24eb2562d7b849cfed,
        type: 3}
      propertyPath: m_LocalRotation.y
      value: -0
      objectReference: {fileID: 0}
    - target: {fileID: 2129587651359434135, guid: e4324f2703548f24eb2562d7b849cfed,
        type: 3}
      propertyPath: m_LocalRotation.z
      value: -0
      objectReference: {fileID: 0}
    - target: {fileID: 2129587651359434135, guid: e4324f2703548f24eb2562d7b849cfed,
        type: 3}
      propertyPath: m_LocalRotation.w
      value: 0.7360616
      objectReference: {fileID: 0}
    - target: {fileID: 2129587651359434135, guid: e4324f2703548f24eb2562d7b849cfed,
        type: 3}
      propertyPath: m_RootOrder
      value: 6
      objectReference: {fileID: 0}
    - target: {fileID: 2129587651359434135, guid: e4324f2703548f24eb2562d7b849cfed,
        type: 3}
      propertyPath: m_LocalEulerAnglesHint.x
      value: -85.206
      objectReference: {fileID: 0}
    - target: {fileID: 2129587651359434135, guid: e4324f2703548f24eb2562d7b849cfed,
        type: 3}
      propertyPath: m_LocalEulerAnglesHint.y
      value: 0
      objectReference: {fileID: 0}
    - target: {fileID: 2129587651359434135, guid: e4324f2703548f24eb2562d7b849cfed,
        type: 3}
      propertyPath: m_LocalEulerAnglesHint.z
      value: 0
      objectReference: {fileID: 0}
    - target: {fileID: 8751098895981122339, guid: e4324f2703548f24eb2562d7b849cfed,
        type: 3}
      propertyPath: m_IsActive
      value: 0
      objectReference: {fileID: 0}
    m_RemovedComponents:
    - {fileID: 2129587652903929250, guid: e4324f2703548f24eb2562d7b849cfed, type: 3}
  m_SourcePrefab: {fileID: 100100000, guid: e4324f2703548f24eb2562d7b849cfed, type: 3}
--- !u!4 &155062192 stripped
Transform:
  m_CorrespondingSourceObject: {fileID: 2129587651359434135, guid: e4324f2703548f24eb2562d7b849cfed,
    type: 3}
  m_PrefabInstance: {fileID: 155062191}
  m_PrefabAsset: {fileID: 0}
--- !u!1 &265046193
GameObject:
  m_ObjectHideFlags: 0
  m_CorrespondingSourceObject: {fileID: 0}
  m_PrefabInstance: {fileID: 0}
  m_PrefabAsset: {fileID: 0}
  serializedVersion: 6
  m_Component:
  - component: {fileID: 265046194}
  - component: {fileID: 265046199}
  - component: {fileID: 265046198}
  - component: {fileID: 265046197}
  - component: {fileID: 265046196}
  - component: {fileID: 265046195}
  m_Layer: 0
  m_Name: GrabbableBallArmRed (3)
  m_TagString: Untagged
  m_Icon: {fileID: 0}
  m_NavMeshLayer: 0
  m_StaticEditorFlags: 0
  m_IsActive: 1
--- !u!4 &265046194
Transform:
  m_ObjectHideFlags: 0
  m_CorrespondingSourceObject: {fileID: 0}
  m_PrefabInstance: {fileID: 0}
  m_PrefabAsset: {fileID: 0}
  m_GameObject: {fileID: 265046193}
  m_LocalRotation: {x: -0, y: 0.12049973, z: -0, w: 0.9927134}
  m_LocalPosition: {x: -0.434, y: -0.198, z: -0.146}
  m_LocalScale: {x: 0.05, y: 0.049999997, z: 0.05}
  m_Children:
  - {fileID: 545458080}
  m_Father: {fileID: 1682325115}
  m_RootOrder: 8
  m_LocalEulerAnglesHint: {x: 0, y: 13.842001, z: 0}
--- !u!114 &265046195
MonoBehaviour:
  m_ObjectHideFlags: 0
  m_CorrespondingSourceObject: {fileID: 0}
  m_PrefabInstance: {fileID: 0}
  m_PrefabAsset: {fileID: 0}
  m_GameObject: {fileID: 265046193}
  m_Enabled: 1
  m_EditorHideFlags: 0
  m_Script: {fileID: 11500000, guid: 5cdea428d48e2bb488d33d5f75c39bb9, type: 3}
  m_Name: 
  m_EditorClassIdentifier: 
  BeingHeld: 0
  GrabButton: 0
  Grabtype: 0
  GrabPhysics: 1
  GrabMechanic: 1
  GrabSpeed: 7.5
  RemoteGrabbable: 0
  RemoteGrabDistance: 2
  ThrowForceMultiplier: 1.25
  ThrowForceMultiplierAngular: 1.125
  BreakDistance: 0.5
  HideHandGraphics: 0
  ParentToHands: 0
  ParentHandModel: 0
  SnapHandModel: 1
  ForceDisableKinematicOnDrop: 0
  CustomHandPose: 0
  SecondaryGrabBehavior: 0
  OtherGrabbableMustBeGrabbed: {fileID: 0}
  CollisionSpring: 3000
  CollisionSlerp: 500
  CollisionLinearMotionX: 2
  CollisionLinearMotionY: 2
  CollisionLinearMotionZ: 2
  CollisionAngularMotionX: 2
  CollisionAngularMotionY: 2
  CollisionAngularMotionZ: 2
  ApplyCorrectiveForce: 1
  CanBeDropped: 1
  CanBeSnappedToSnapZone: 1
  LastGrabTime: 0
  LastDropTime: 0
  AddControllerVelocityOnDrop: 1
  ActiveGrabPoint: {fileID: 0}
  SecondaryGrabbable: {fileID: 0}
  SecondHandLookSpeed: 40
  SecondaryLookOffset: {x: 0, y: 0, z: 0}
  SecondaryLookAtTransform: {fileID: 0}
  LocalOffsetTransform: {fileID: 0}
  GrabPoints: []
--- !u!54 &265046196
Rigidbody:
  m_ObjectHideFlags: 0
  m_CorrespondingSourceObject: {fileID: 0}
  m_PrefabInstance: {fileID: 0}
  m_PrefabAsset: {fileID: 0}
  m_GameObject: {fileID: 265046193}
  serializedVersion: 2
  m_Mass: 1
  m_Drag: 0
  m_AngularDrag: 0.05
  m_UseGravity: 0
  m_IsKinematic: 1
  m_Interpolate: 0
  m_Constraints: 0
  m_CollisionDetection: 0
--- !u!135 &265046197
SphereCollider:
  m_ObjectHideFlags: 0
  m_CorrespondingSourceObject: {fileID: 0}
  m_PrefabInstance: {fileID: 0}
  m_PrefabAsset: {fileID: 0}
  m_GameObject: {fileID: 265046193}
  m_Material: {fileID: 0}
  m_IsTrigger: 0
  m_Enabled: 1
  serializedVersion: 2
  m_Radius: 0.5
  m_Center: {x: 0, y: 0, z: 0}
--- !u!23 &265046198
MeshRenderer:
  m_ObjectHideFlags: 0
  m_CorrespondingSourceObject: {fileID: 0}
  m_PrefabInstance: {fileID: 0}
  m_PrefabAsset: {fileID: 0}
  m_GameObject: {fileID: 265046193}
  m_Enabled: 1
  m_CastShadows: 1
  m_ReceiveShadows: 1
  m_DynamicOccludee: 1
  m_MotionVectors: 1
  m_LightProbeUsage: 1
  m_ReflectionProbeUsage: 1
  m_RayTracingMode: 2
  m_RenderingLayerMask: 1
  m_RendererPriority: 0
  m_Materials:
  - {fileID: 2100000, guid: da784f6b5cf7dcd42be638248c6086cb, type: 2}
  m_StaticBatchInfo:
    firstSubMesh: 0
    subMeshCount: 0
  m_StaticBatchRoot: {fileID: 0}
  m_ProbeAnchor: {fileID: 0}
  m_LightProbeVolumeOverride: {fileID: 0}
  m_ScaleInLightmap: 1
  m_ReceiveGI: 1
  m_PreserveUVs: 0
  m_IgnoreNormalsForChartDetection: 0
  m_ImportantGI: 0
  m_StitchLightmapSeams: 1
  m_SelectedEditorRenderState: 3
  m_MinimumChartSize: 4
  m_AutoUVMaxDistance: 0.5
  m_AutoUVMaxAngle: 89
  m_LightmapParameters: {fileID: 0}
  m_SortingLayerID: 0
  m_SortingLayer: 0
  m_SortingOrder: 0
--- !u!33 &265046199
MeshFilter:
  m_ObjectHideFlags: 0
  m_CorrespondingSourceObject: {fileID: 0}
  m_PrefabInstance: {fileID: 0}
  m_PrefabAsset: {fileID: 0}
  m_GameObject: {fileID: 265046193}
  m_Mesh: {fileID: 10207, guid: 0000000000000000e000000000000000, type: 0}
--- !u!1001 &266235653
PrefabInstance:
  m_ObjectHideFlags: 0
  serializedVersion: 2
  m_Modification:
    m_TransformParent: {fileID: 1682325115}
    m_Modifications:
    - target: {fileID: 3819461241045042490, guid: d1196da97cc726d48bb5c44c053d9cef,
        type: 3}
      propertyPath: m_Text
      value: 'Click the Button to toggle between using Pinch to Draw and Pinch to
        Grab.


        Hit the RESET button to clear your drawing.'
      objectReference: {fileID: 0}
    - target: {fileID: 3819461241045042490, guid: d1196da97cc726d48bb5c44c053d9cef,
        type: 3}
      propertyPath: m_FontData.m_FontSize
      value: 33
      objectReference: {fileID: 0}
    - target: {fileID: 3819461241045042490, guid: d1196da97cc726d48bb5c44c053d9cef,
        type: 3}
      propertyPath: m_FontData.m_MinSize
      value: 3
      objectReference: {fileID: 0}
    - target: {fileID: 5759788175828937640, guid: d1196da97cc726d48bb5c44c053d9cef,
        type: 3}
      propertyPath: m_LocalPosition.x
      value: -0.43939883
      objectReference: {fileID: 0}
    - target: {fileID: 5759788175828937640, guid: d1196da97cc726d48bb5c44c053d9cef,
        type: 3}
      propertyPath: m_LocalPosition.y
      value: 0.058709882
      objectReference: {fileID: 0}
    - target: {fileID: 5759788175828937640, guid: d1196da97cc726d48bb5c44c053d9cef,
        type: 3}
      propertyPath: m_LocalPosition.z
      value: 0.19826794
      objectReference: {fileID: 0}
    - target: {fileID: 5759788175828937640, guid: d1196da97cc726d48bb5c44c053d9cef,
        type: 3}
      propertyPath: m_LocalRotation.x
      value: -0
      objectReference: {fileID: 0}
    - target: {fileID: 5759788175828937640, guid: d1196da97cc726d48bb5c44c053d9cef,
        type: 3}
      propertyPath: m_LocalRotation.y
      value: 0.9515012
      objectReference: {fileID: 0}
    - target: {fileID: 5759788175828937640, guid: d1196da97cc726d48bb5c44c053d9cef,
        type: 3}
      propertyPath: m_LocalRotation.z
      value: -0
      objectReference: {fileID: 0}
    - target: {fileID: 5759788175828937640, guid: d1196da97cc726d48bb5c44c053d9cef,
        type: 3}
      propertyPath: m_LocalRotation.w
      value: 0.30764514
      objectReference: {fileID: 0}
    - target: {fileID: 5759788175828937640, guid: d1196da97cc726d48bb5c44c053d9cef,
        type: 3}
      propertyPath: m_RootOrder
      value: 1
      objectReference: {fileID: 0}
    - target: {fileID: 5759788175828937640, guid: d1196da97cc726d48bb5c44c053d9cef,
        type: 3}
      propertyPath: m_LocalEulerAnglesHint.x
      value: 0
      objectReference: {fileID: 0}
    - target: {fileID: 5759788175828937640, guid: d1196da97cc726d48bb5c44c053d9cef,
        type: 3}
      propertyPath: m_LocalEulerAnglesHint.y
      value: 144.16501
      objectReference: {fileID: 0}
    - target: {fileID: 5759788175828937640, guid: d1196da97cc726d48bb5c44c053d9cef,
        type: 3}
      propertyPath: m_LocalEulerAnglesHint.z
      value: 0
      objectReference: {fileID: 0}
    - target: {fileID: 5759788175828937641, guid: d1196da97cc726d48bb5c44c053d9cef,
        type: 3}
      propertyPath: m_Name
      value: DebugDisplay
      objectReference: {fileID: 0}
    - target: {fileID: 8597551268740539956, guid: d1196da97cc726d48bb5c44c053d9cef,
        type: 3}
      propertyPath: m_Text
      value: '<i>Hand Tracking Example : </i>


        Pinch Index Finger to Grab
        or Draw. Click Button to Toggle Between Grab and Draw Mode.


'
      objectReference: {fileID: 0}
    - target: {fileID: 8597551268740539957, guid: d1196da97cc726d48bb5c44c053d9cef,
        type: 3}
      propertyPath: m_SizeDelta.x
      value: 0
      objectReference: {fileID: 0}
    - target: {fileID: 8597551268740539957, guid: d1196da97cc726d48bb5c44c053d9cef,
        type: 3}
      propertyPath: m_SizeDelta.y
      value: -415.07
      objectReference: {fileID: 0}
    - target: {fileID: 8597551268740539957, guid: d1196da97cc726d48bb5c44c053d9cef,
        type: 3}
      propertyPath: m_AnchoredPosition.y
      value: -41.457
      objectReference: {fileID: 0}
    - target: {fileID: 8597551269173411422, guid: d1196da97cc726d48bb5c44c053d9cef,
        type: 3}
      propertyPath: m_AnchoredPosition.y
      value: 0.0302
      objectReference: {fileID: 0}
    - target: {fileID: 8597551269173411422, guid: d1196da97cc726d48bb5c44c053d9cef,
        type: 3}
      propertyPath: m_SizeDelta.y
      value: 668.0457
      objectReference: {fileID: 0}
    m_RemovedComponents:
    - {fileID: 5759788175828937642, guid: d1196da97cc726d48bb5c44c053d9cef, type: 3}
  m_SourcePrefab: {fileID: 100100000, guid: d1196da97cc726d48bb5c44c053d9cef, type: 3}
--- !u!224 &266235654 stripped
RectTransform:
  m_CorrespondingSourceObject: {fileID: 8597551269173411422, guid: d1196da97cc726d48bb5c44c053d9cef,
    type: 3}
  m_PrefabInstance: {fileID: 266235653}
  m_PrefabAsset: {fileID: 0}
--- !u!4 &266235655 stripped
Transform:
  m_CorrespondingSourceObject: {fileID: 5759788175828937640, guid: d1196da97cc726d48bb5c44c053d9cef,
    type: 3}
  m_PrefabInstance: {fileID: 266235653}
  m_PrefabAsset: {fileID: 0}
--- !u!4 &273728236 stripped
Transform:
  m_CorrespondingSourceObject: {fileID: 6396212369312976514, guid: 624ef7d780846b342988732cbb919663,
    type: 3}
  m_PrefabInstance: {fileID: 1158622622}
  m_PrefabAsset: {fileID: 0}
--- !u!1001 &403600946
PrefabInstance:
  m_ObjectHideFlags: 0
  serializedVersion: 2
  m_Modification:
    m_TransformParent: {fileID: 1682325115}
    m_Modifications:
    - target: {fileID: 7597927799449061377, guid: 0f50f6c994c01194195f0b739e15686d,
        type: 3}
      propertyPath: m_LocalPosition.x
      value: 0.3411
      objectReference: {fileID: 0}
    - target: {fileID: 7597927799449061377, guid: 0f50f6c994c01194195f0b739e15686d,
        type: 3}
      propertyPath: m_LocalPosition.y
      value: -0.07199012
      objectReference: {fileID: 0}
    - target: {fileID: 7597927799449061377, guid: 0f50f6c994c01194195f0b739e15686d,
        type: 3}
      propertyPath: m_LocalPosition.z
      value: 0.004267931
      objectReference: {fileID: 0}
    - target: {fileID: 7597927799449061377, guid: 0f50f6c994c01194195f0b739e15686d,
        type: 3}
      propertyPath: m_LocalRotation.x
      value: -0
      objectReference: {fileID: 0}
    - target: {fileID: 7597927799449061377, guid: 0f50f6c994c01194195f0b739e15686d,
        type: 3}
      propertyPath: m_LocalRotation.y
      value: -0
      objectReference: {fileID: 0}
    - target: {fileID: 7597927799449061377, guid: 0f50f6c994c01194195f0b739e15686d,
        type: 3}
      propertyPath: m_LocalRotation.z
      value: -0
      objectReference: {fileID: 0}
    - target: {fileID: 7597927799449061377, guid: 0f50f6c994c01194195f0b739e15686d,
        type: 3}
      propertyPath: m_LocalRotation.w
      value: 1
      objectReference: {fileID: 0}
    - target: {fileID: 7597927799449061377, guid: 0f50f6c994c01194195f0b739e15686d,
        type: 3}
      propertyPath: m_RootOrder
      value: 5
      objectReference: {fileID: 0}
    - target: {fileID: 7597927799449061377, guid: 0f50f6c994c01194195f0b739e15686d,
        type: 3}
      propertyPath: m_LocalEulerAnglesHint.x
      value: 0
      objectReference: {fileID: 0}
    - target: {fileID: 7597927799449061377, guid: 0f50f6c994c01194195f0b739e15686d,
        type: 3}
      propertyPath: m_LocalEulerAnglesHint.y
      value: 0
      objectReference: {fileID: 0}
    - target: {fileID: 7597927799449061377, guid: 0f50f6c994c01194195f0b739e15686d,
        type: 3}
      propertyPath: m_LocalEulerAnglesHint.z
      value: 0
      objectReference: {fileID: 0}
    - target: {fileID: 7597927799449061383, guid: 0f50f6c994c01194195f0b739e15686d,
        type: 3}
      propertyPath: m_Materials.Array.data[0]
      value: 
      objectReference: {fileID: 2100000, guid: fc69318049f082042bb7eb4cecce83e9, type: 2}
    - target: {fileID: 7597927799449061386, guid: 0f50f6c994c01194195f0b739e15686d,
        type: 3}
      propertyPath: ParentToHands
      value: 0
      objectReference: {fileID: 0}
    - target: {fileID: 7597927799449061387, guid: 0f50f6c994c01194195f0b739e15686d,
        type: 3}
      propertyPath: m_Name
      value: BlockYellow
      objectReference: {fileID: 0}
    - target: {fileID: 7597927799449061387, guid: 0f50f6c994c01194195f0b739e15686d,
        type: 3}
      propertyPath: m_Layer
      value: 10
      objectReference: {fileID: 0}
    m_RemovedComponents:
    - {fileID: 7597927799449061405, guid: 0f50f6c994c01194195f0b739e15686d, type: 3}
    - {fileID: 7597927799449061378, guid: 0f50f6c994c01194195f0b739e15686d, type: 3}
    - {fileID: 7597927799449061379, guid: 0f50f6c994c01194195f0b739e15686d, type: 3}
  m_SourcePrefab: {fileID: 100100000, guid: 0f50f6c994c01194195f0b739e15686d, type: 3}
--- !u!4 &403600947 stripped
Transform:
  m_CorrespondingSourceObject: {fileID: 7597927799449061377, guid: 0f50f6c994c01194195f0b739e15686d,
    type: 3}
  m_PrefabInstance: {fileID: 403600946}
  m_PrefabAsset: {fileID: 0}
--- !u!1 &545458079
GameObject:
  m_ObjectHideFlags: 0
  m_CorrespondingSourceObject: {fileID: 0}
  m_PrefabInstance: {fileID: 0}
  m_PrefabAsset: {fileID: 0}
  serializedVersion: 6
  m_Component:
  - component: {fileID: 545458080}
  - component: {fileID: 545458081}
  m_Layer: 0
  m_Name: LookAt
  m_TagString: Untagged
  m_Icon: {fileID: 0}
  m_NavMeshLayer: 0
  m_StaticEditorFlags: 0
  m_IsActive: 1
--- !u!4 &545458080
Transform:
  m_ObjectHideFlags: 0
  m_CorrespondingSourceObject: {fileID: 0}
  m_PrefabInstance: {fileID: 0}
  m_PrefabAsset: {fileID: 0}
  m_GameObject: {fileID: 545458079}
  m_LocalRotation: {x: 0, y: 0, z: 0, w: 1}
  m_LocalPosition: {x: 0, y: 0, z: 0}
  m_LocalScale: {x: 10, y: 10, z: 10}
  m_Children: []
  m_Father: {fileID: 265046194}
  m_RootOrder: 0
  m_LocalEulerAnglesHint: {x: 0, y: 0, z: 0}
--- !u!114 &545458081
MonoBehaviour:
  m_ObjectHideFlags: 0
  m_CorrespondingSourceObject: {fileID: 0}
  m_PrefabInstance: {fileID: 0}
  m_PrefabAsset: {fileID: 0}
  m_GameObject: {fileID: 545458079}
  m_Enabled: 1
  m_EditorHideFlags: 0
  m_Script: {fileID: 11500000, guid: 5a4d87fa387c8884fa0d9876ca348943, type: 3}
  m_Name: 
  m_EditorClassIdentifier: 
  LookAt: {fileID: 809842561}
  UseLerp: 0
  Speed: 20
  UseUpdate: 1
  UseLateUpdate: 0
--- !u!1 &569622175
GameObject:
  m_ObjectHideFlags: 0
  m_CorrespondingSourceObject: {fileID: 0}
  m_PrefabInstance: {fileID: 0}
  m_PrefabAsset: {fileID: 0}
  serializedVersion: 6
  m_Component:
  - component: {fileID: 569622177}
  - component: {fileID: 569622176}
  m_Layer: 0
  m_Name: Directional Light
  m_TagString: Untagged
  m_Icon: {fileID: 0}
  m_NavMeshLayer: 0
  m_StaticEditorFlags: 0
  m_IsActive: 1
--- !u!108 &569622176
Light:
  m_ObjectHideFlags: 0
  m_CorrespondingSourceObject: {fileID: 0}
  m_PrefabInstance: {fileID: 0}
  m_PrefabAsset: {fileID: 0}
  m_GameObject: {fileID: 569622175}
  m_Enabled: 1
  serializedVersion: 10
  m_Type: 1
  m_Shape: 0
  m_Color: {r: 1, g: 0.95686275, b: 0.8392157, a: 1}
  m_Intensity: 1.17
  m_Range: 10
  m_SpotAngle: 30
  m_InnerSpotAngle: 21.80208
  m_CookieSize: 10
  m_Shadows:
    m_Type: 2
    m_Resolution: -1
    m_CustomResolution: -1
    m_Strength: 1
    m_Bias: 0.05
    m_NormalBias: 0.4
    m_NearPlane: 0.2
    m_CullingMatrixOverride:
      e00: 1
      e01: 0
      e02: 0
      e03: 0
      e10: 0
      e11: 1
      e12: 0
      e13: 0
      e20: 0
      e21: 0
      e22: 1
      e23: 0
      e30: 0
      e31: 0
      e32: 0
      e33: 1
    m_UseCullingMatrixOverride: 0
  m_Cookie: {fileID: 0}
  m_DrawHalo: 0
  m_Flare: {fileID: 0}
  m_RenderMode: 0
  m_CullingMask:
    serializedVersion: 2
    m_Bits: 4294967295
  m_RenderingLayerMask: 1
  m_Lightmapping: 4
  m_LightShadowCasterMode: 0
  m_AreaSize: {x: 1, y: 1}
  m_BounceIntensity: 1
  m_ColorTemperature: 6570
  m_UseColorTemperature: 0
  m_BoundingSphereOverride: {x: 0, y: 0, z: 0, w: 0}
  m_UseBoundingSphereOverride: 0
  m_ShadowRadius: 0
  m_ShadowAngle: 0
--- !u!4 &569622177
Transform:
  m_ObjectHideFlags: 0
  m_CorrespondingSourceObject: {fileID: 0}
  m_PrefabInstance: {fileID: 0}
  m_PrefabAsset: {fileID: 0}
  m_GameObject: {fileID: 569622175}
  m_LocalRotation: {x: 0.40821788, y: -0.23456968, z: 0.10938163, w: 0.8754261}
  m_LocalPosition: {x: 0, y: 3, z: 0}
  m_LocalScale: {x: 1, y: 1, z: 1}
  m_Children: []
  m_Father: {fileID: 0}
  m_RootOrder: 0
  m_LocalEulerAnglesHint: {x: 50, y: -30, z: 0}
--- !u!1001 &645905793
PrefabInstance:
  m_ObjectHideFlags: 0
  serializedVersion: 2
  m_Modification:
    m_TransformParent: {fileID: 1682325115}
    m_Modifications:
    - target: {fileID: 559738608341320873, guid: a789d0b9ce34ff842880e59ef8261779,
        type: 3}
      propertyPath: m_Materials.Array.data[0]
      value: 
      objectReference: {fileID: 2100000, guid: da784f6b5cf7dcd42be638248c6086cb, type: 2}
    - target: {fileID: 9165342805143339176, guid: a789d0b9ce34ff842880e59ef8261779,
        type: 3}
      propertyPath: m_LocalScale.y
      value: 0.82674897
      objectReference: {fileID: 0}
    - target: {fileID: 9165342805143339176, guid: a789d0b9ce34ff842880e59ef8261779,
        type: 3}
      propertyPath: m_LocalPosition.y
      value: -0.441
      objectReference: {fileID: 0}
    - target: {fileID: 9165342805367700875, guid: a789d0b9ce34ff842880e59ef8261779,
        type: 3}
      propertyPath: m_LocalScale.y
      value: 0.82674897
      objectReference: {fileID: 0}
    - target: {fileID: 9165342805367700875, guid: a789d0b9ce34ff842880e59ef8261779,
        type: 3}
      propertyPath: m_LocalPosition.y
      value: -0.441
      objectReference: {fileID: 0}
    - target: {fileID: 9165342805633456187, guid: a789d0b9ce34ff842880e59ef8261779,
        type: 3}
      propertyPath: m_LocalScale.y
      value: 0.82674897
      objectReference: {fileID: 0}
    - target: {fileID: 9165342805633456187, guid: a789d0b9ce34ff842880e59ef8261779,
        type: 3}
      propertyPath: m_LocalPosition.y
      value: -0.441
      objectReference: {fileID: 0}
    - target: {fileID: 9165342805822706224, guid: a789d0b9ce34ff842880e59ef8261779,
        type: 3}
      propertyPath: m_LocalScale.y
      value: 0.82674897
      objectReference: {fileID: 0}
    - target: {fileID: 9165342805822706224, guid: a789d0b9ce34ff842880e59ef8261779,
        type: 3}
      propertyPath: m_LocalPosition.y
      value: -0.441
      objectReference: {fileID: 0}
    - target: {fileID: 9165342806373082573, guid: a789d0b9ce34ff842880e59ef8261779,
        type: 3}
      propertyPath: m_LocalPosition.x
      value: 0.025752928
      objectReference: {fileID: 0}
    - target: {fileID: 9165342806373082573, guid: a789d0b9ce34ff842880e59ef8261779,
        type: 3}
      propertyPath: m_LocalPosition.y
      value: -0.30329013
      objectReference: {fileID: 0}
    - target: {fileID: 9165342806373082573, guid: a789d0b9ce34ff842880e59ef8261779,
        type: 3}
      propertyPath: m_LocalPosition.z
      value: 0.37826794
      objectReference: {fileID: 0}
    - target: {fileID: 9165342806373082573, guid: a789d0b9ce34ff842880e59ef8261779,
        type: 3}
      propertyPath: m_LocalRotation.x
      value: -0
      objectReference: {fileID: 0}
    - target: {fileID: 9165342806373082573, guid: a789d0b9ce34ff842880e59ef8261779,
        type: 3}
      propertyPath: m_LocalRotation.y
      value: -0
      objectReference: {fileID: 0}
    - target: {fileID: 9165342806373082573, guid: a789d0b9ce34ff842880e59ef8261779,
        type: 3}
      propertyPath: m_LocalRotation.z
      value: -0
      objectReference: {fileID: 0}
    - target: {fileID: 9165342806373082573, guid: a789d0b9ce34ff842880e59ef8261779,
        type: 3}
      propertyPath: m_LocalRotation.w
      value: 1
      objectReference: {fileID: 0}
    - target: {fileID: 9165342806373082573, guid: a789d0b9ce34ff842880e59ef8261779,
        type: 3}
      propertyPath: m_RootOrder
      value: 0
      objectReference: {fileID: 0}
    - target: {fileID: 9165342806373082573, guid: a789d0b9ce34ff842880e59ef8261779,
        type: 3}
      propertyPath: m_LocalEulerAnglesHint.x
      value: 0
      objectReference: {fileID: 0}
    - target: {fileID: 9165342806373082573, guid: a789d0b9ce34ff842880e59ef8261779,
        type: 3}
      propertyPath: m_LocalEulerAnglesHint.y
      value: 0
      objectReference: {fileID: 0}
    - target: {fileID: 9165342806373082573, guid: a789d0b9ce34ff842880e59ef8261779,
        type: 3}
      propertyPath: m_LocalEulerAnglesHint.z
      value: 0
      objectReference: {fileID: 0}
    - target: {fileID: 9165342806373082577, guid: a789d0b9ce34ff842880e59ef8261779,
        type: 3}
      propertyPath: m_Name
      value: Desk
      objectReference: {fileID: 0}
    m_RemovedComponents: []
  m_SourcePrefab: {fileID: 100100000, guid: a789d0b9ce34ff842880e59ef8261779, type: 3}
--- !u!1001 &670518690
PrefabInstance:
  m_ObjectHideFlags: 0
  serializedVersion: 2
  m_Modification:
    m_TransformParent: {fileID: 0}
    m_Modifications:
    - target: {fileID: 7443350870406903087, guid: 5473e17f2443cd74c824a7b89f0585f1,
        type: 3}
      propertyPath: m_Enabled
      value: 1
      objectReference: {fileID: 0}
    - target: {fileID: 8202325032701421788, guid: 5473e17f2443cd74c824a7b89f0585f1,
        type: 3}
      propertyPath: m_LocalPosition.x
      value: 0
      objectReference: {fileID: 0}
    - target: {fileID: 8202325032701421788, guid: 5473e17f2443cd74c824a7b89f0585f1,
        type: 3}
      propertyPath: m_LocalPosition.y
      value: 0
      objectReference: {fileID: 0}
    - target: {fileID: 8202325032701421788, guid: 5473e17f2443cd74c824a7b89f0585f1,
        type: 3}
      propertyPath: m_LocalPosition.z
      value: 0
      objectReference: {fileID: 0}
    - target: {fileID: 8202325032701421788, guid: 5473e17f2443cd74c824a7b89f0585f1,
        type: 3}
      propertyPath: m_LocalRotation.x
      value: 0
      objectReference: {fileID: 0}
    - target: {fileID: 8202325032701421788, guid: 5473e17f2443cd74c824a7b89f0585f1,
        type: 3}
      propertyPath: m_LocalRotation.y
      value: 0
      objectReference: {fileID: 0}
    - target: {fileID: 8202325032701421788, guid: 5473e17f2443cd74c824a7b89f0585f1,
        type: 3}
      propertyPath: m_LocalRotation.z
      value: 0
      objectReference: {fileID: 0}
    - target: {fileID: 8202325032701421788, guid: 5473e17f2443cd74c824a7b89f0585f1,
        type: 3}
      propertyPath: m_LocalRotation.w
      value: 1
      objectReference: {fileID: 0}
    - target: {fileID: 8202325032701421788, guid: 5473e17f2443cd74c824a7b89f0585f1,
        type: 3}
      propertyPath: m_RootOrder
      value: 2
      objectReference: {fileID: 0}
    - target: {fileID: 8202325032701421788, guid: 5473e17f2443cd74c824a7b89f0585f1,
        type: 3}
      propertyPath: m_LocalEulerAnglesHint.x
      value: 0
      objectReference: {fileID: 0}
    - target: {fileID: 8202325032701421788, guid: 5473e17f2443cd74c824a7b89f0585f1,
        type: 3}
      propertyPath: m_LocalEulerAnglesHint.y
      value: 0
      objectReference: {fileID: 0}
    - target: {fileID: 8202325032701421788, guid: 5473e17f2443cd74c824a7b89f0585f1,
        type: 3}
      propertyPath: m_LocalEulerAnglesHint.z
      value: 0
      objectReference: {fileID: 0}
    - target: {fileID: 8202325032701421790, guid: 5473e17f2443cd74c824a7b89f0585f1,
        type: 3}
      propertyPath: m_Name
      value: Player
      objectReference: {fileID: 0}
    m_RemovedComponents: []
  m_SourcePrefab: {fileID: 100100000, guid: 5473e17f2443cd74c824a7b89f0585f1, type: 3}
--- !u!1 &677438124
GameObject:
  m_ObjectHideFlags: 0
  m_CorrespondingSourceObject: {fileID: 0}
  m_PrefabInstance: {fileID: 0}
  m_PrefabAsset: {fileID: 0}
  serializedVersion: 6
  m_Component:
  - component: {fileID: 677438125}
  - component: {fileID: 677438127}
  - component: {fileID: 677438128}
  - component: {fileID: 677438126}
  m_Layer: 5
  m_Name: FPSText
  m_TagString: Untagged
  m_Icon: {fileID: 0}
  m_NavMeshLayer: 0
  m_StaticEditorFlags: 0
  m_IsActive: 1
--- !u!224 &677438125
RectTransform:
  m_ObjectHideFlags: 0
  m_CorrespondingSourceObject: {fileID: 0}
  m_PrefabInstance: {fileID: 0}
  m_PrefabAsset: {fileID: 0}
  m_GameObject: {fileID: 677438124}
  m_LocalRotation: {x: 0, y: 0.00000016048051, z: 0, w: 1}
  m_LocalPosition: {x: 0, y: 0, z: -0.0000000020038}
  m_LocalScale: {x: 1, y: 1, z: 1}
  m_Children: []
  m_Father: {fileID: 266235654}
  m_RootOrder: 2
  m_LocalEulerAnglesHint: {x: 0, y: 0, z: 0}
  m_AnchorMin: {x: 1, y: 1}
  m_AnchorMax: {x: 1, y: 1}
  m_AnchoredPosition: {x: -211.03, y: 5.254608}
  m_SizeDelta: {x: 191.844, y: 52.545715}
  m_Pivot: {x: -0.1, y: 1.1}
--- !u!114 &677438126
MonoBehaviour:
  m_ObjectHideFlags: 0
  m_CorrespondingSourceObject: {fileID: 0}
  m_PrefabInstance: {fileID: 0}
  m_PrefabAsset: {fileID: 0}
  m_GameObject: {fileID: 677438124}
  m_Enabled: 1
  m_EditorHideFlags: 0
  m_Script: {fileID: 11500000, guid: 5f7201a12d95ffc409449d95f23cf332, type: 3}
  m_Name: 
  m_EditorClassIdentifier: 
  m_Material: {fileID: 0}
  m_Color: {r: 1, g: 1, b: 1, a: 1}
  m_RaycastTarget: 0
  m_Maskable: 1
  m_OnCullStateChanged:
    m_PersistentCalls:
      m_Calls: []
  m_FontData:
    m_Font: {fileID: 12800000, guid: 0ebbcec4dd8e2f040b163f10df7e8382, type: 3}
    m_FontSize: 33
    m_FontStyle: 0
    m_BestFit: 0
    m_MinSize: 3
    m_MaxSize: 40
    m_Alignment: 2
    m_AlignByGeometry: 0
    m_RichText: 1
    m_HorizontalOverflow: 0
    m_VerticalOverflow: 0
    m_LineSpacing: 1
  m_Text: 72 FPS
--- !u!222 &677438127
CanvasRenderer:
  m_ObjectHideFlags: 0
  m_CorrespondingSourceObject: {fileID: 0}
  m_PrefabInstance: {fileID: 0}
  m_PrefabAsset: {fileID: 0}
  m_GameObject: {fileID: 677438124}
  m_CullTransparentMesh: 0
--- !u!114 &677438128
MonoBehaviour:
  m_ObjectHideFlags: 0
  m_CorrespondingSourceObject: {fileID: 0}
  m_PrefabInstance: {fileID: 0}
  m_PrefabAsset: {fileID: 0}
  m_GameObject: {fileID: 677438124}
  m_Enabled: 1
  m_EditorHideFlags: 0
  m_Script: {fileID: 11500000, guid: 4eb1eedca1aa0f14ab1ebbd021cc7051, type: 3}
  m_Name: 
  m_EditorClassIdentifier: 
--- !u!1 &809842560
GameObject:
  m_ObjectHideFlags: 0
  m_CorrespondingSourceObject: {fileID: 0}
  m_PrefabInstance: {fileID: 0}
  m_PrefabAsset: {fileID: 0}
  serializedVersion: 6
  m_Component:
  - component: {fileID: 809842561}
  - component: {fileID: 809842566}
  - component: {fileID: 809842565}
  - component: {fileID: 809842564}
  - component: {fileID: 809842563}
  - component: {fileID: 809842562}
  m_Layer: 0
  m_Name: GrabbableBallArmBlue (3)
  m_TagString: Untagged
  m_Icon: {fileID: 0}
  m_NavMeshLayer: 0
  m_StaticEditorFlags: 0
  m_IsActive: 1
--- !u!4 &809842561
Transform:
  m_ObjectHideFlags: 0
  m_CorrespondingSourceObject: {fileID: 0}
  m_PrefabInstance: {fileID: 0}
  m_PrefabAsset: {fileID: 0}
  m_GameObject: {fileID: 809842560}
  m_LocalRotation: {x: -0, y: 0.12049973, z: -0, w: 0.9927134}
  m_LocalPosition: {x: -0.48184875, y: -0.198, z: -0.340192}
  m_LocalScale: {x: 0.05, y: 0.049999997, z: 0.05}
  m_Children: []
  m_Father: {fileID: 1682325115}
  m_RootOrder: 9
  m_LocalEulerAnglesHint: {x: 0, y: 13.842001, z: 0}
--- !u!114 &809842562
MonoBehaviour:
  m_ObjectHideFlags: 0
  m_CorrespondingSourceObject: {fileID: 0}
  m_PrefabInstance: {fileID: 0}
  m_PrefabAsset: {fileID: 0}
  m_GameObject: {fileID: 809842560}
  m_Enabled: 1
  m_EditorHideFlags: 0
  m_Script: {fileID: 11500000, guid: 5cdea428d48e2bb488d33d5f75c39bb9, type: 3}
  m_Name: 
  m_EditorClassIdentifier: 
  BeingHeld: 0
  GrabButton: 0
  Grabtype: 0
  GrabPhysics: 1
  GrabMechanic: 1
  GrabSpeed: 7.5
  RemoteGrabbable: 0
  RemoteGrabDistance: 2
  ThrowForceMultiplier: 1.25
  ThrowForceMultiplierAngular: 1.125
  BreakDistance: 0.5
  HideHandGraphics: 0
  ParentToHands: 0
  ParentHandModel: 0
  SnapHandModel: 1
  ForceDisableKinematicOnDrop: 0
  CustomHandPose: 0
  SecondaryGrabBehavior: 0
  OtherGrabbableMustBeGrabbed: {fileID: 0}
  CollisionSpring: 3000
  CollisionSlerp: 500
  CollisionLinearMotionX: 2
  CollisionLinearMotionY: 2
  CollisionLinearMotionZ: 2
  CollisionAngularMotionX: 2
  CollisionAngularMotionY: 2
  CollisionAngularMotionZ: 2
  ApplyCorrectiveForce: 1
  CanBeDropped: 1
  CanBeSnappedToSnapZone: 1
  LastGrabTime: 0
  LastDropTime: 0
  AddControllerVelocityOnDrop: 1
  ActiveGrabPoint: {fileID: 0}
  SecondaryGrabbable: {fileID: 0}
  SecondHandLookSpeed: 40
  SecondaryLookOffset: {x: 0, y: 0, z: 0}
  SecondaryLookAtTransform: {fileID: 0}
  LocalOffsetTransform: {fileID: 0}
  GrabPoints: []
--- !u!54 &809842563
Rigidbody:
  m_ObjectHideFlags: 0
  m_CorrespondingSourceObject: {fileID: 0}
  m_PrefabInstance: {fileID: 0}
  m_PrefabAsset: {fileID: 0}
  m_GameObject: {fileID: 809842560}
  serializedVersion: 2
  m_Mass: 1
  m_Drag: 0
  m_AngularDrag: 0.05
  m_UseGravity: 0
  m_IsKinematic: 1
  m_Interpolate: 0
  m_Constraints: 0
  m_CollisionDetection: 0
--- !u!135 &809842564
SphereCollider:
  m_ObjectHideFlags: 0
  m_CorrespondingSourceObject: {fileID: 0}
  m_PrefabInstance: {fileID: 0}
  m_PrefabAsset: {fileID: 0}
  m_GameObject: {fileID: 809842560}
  m_Material: {fileID: 0}
  m_IsTrigger: 0
  m_Enabled: 1
  serializedVersion: 2
  m_Radius: 0.5
  m_Center: {x: 0, y: 0, z: 0}
--- !u!23 &809842565
MeshRenderer:
  m_ObjectHideFlags: 0
  m_CorrespondingSourceObject: {fileID: 0}
  m_PrefabInstance: {fileID: 0}
  m_PrefabAsset: {fileID: 0}
  m_GameObject: {fileID: 809842560}
  m_Enabled: 1
  m_CastShadows: 1
  m_ReceiveShadows: 1
  m_DynamicOccludee: 1
  m_MotionVectors: 1
  m_LightProbeUsage: 1
  m_ReflectionProbeUsage: 1
  m_RayTracingMode: 2
  m_RenderingLayerMask: 1
  m_RendererPriority: 0
  m_Materials:
  - {fileID: 2100000, guid: eb4f63a1c24846549b212d7c7f64a784, type: 2}
  m_StaticBatchInfo:
    firstSubMesh: 0
    subMeshCount: 0
  m_StaticBatchRoot: {fileID: 0}
  m_ProbeAnchor: {fileID: 0}
  m_LightProbeVolumeOverride: {fileID: 0}
  m_ScaleInLightmap: 1
  m_ReceiveGI: 1
  m_PreserveUVs: 0
  m_IgnoreNormalsForChartDetection: 0
  m_ImportantGI: 0
  m_StitchLightmapSeams: 1
  m_SelectedEditorRenderState: 3
  m_MinimumChartSize: 4
  m_AutoUVMaxDistance: 0.5
  m_AutoUVMaxAngle: 89
  m_LightmapParameters: {fileID: 0}
  m_SortingLayerID: 0
  m_SortingLayer: 0
  m_SortingOrder: 0
--- !u!33 &809842566
MeshFilter:
  m_ObjectHideFlags: 0
  m_CorrespondingSourceObject: {fileID: 0}
  m_PrefabInstance: {fileID: 0}
  m_PrefabAsset: {fileID: 0}
  m_GameObject: {fileID: 809842560}
  m_Mesh: {fileID: 10207, guid: 0000000000000000e000000000000000, type: 0}
--- !u!1 &851121307
GameObject:
  m_ObjectHideFlags: 0
  m_CorrespondingSourceObject: {fileID: 0}
  m_PrefabInstance: {fileID: 0}
  m_PrefabAsset: {fileID: 0}
  serializedVersion: 6
  m_Component:
  - component: {fileID: 851121308}
  - component: {fileID: 851121310}
  - component: {fileID: 851121309}
  m_Layer: 5
  m_Name: DebugText
  m_TagString: Untagged
  m_Icon: {fileID: 0}
  m_NavMeshLayer: 0
  m_StaticEditorFlags: 0
  m_IsActive: 1
--- !u!224 &851121308
RectTransform:
  m_ObjectHideFlags: 0
  m_CorrespondingSourceObject: {fileID: 0}
  m_PrefabInstance: {fileID: 0}
  m_PrefabAsset: {fileID: 0}
  m_GameObject: {fileID: 851121307}
  m_LocalRotation: {x: 0, y: 0.00000016048051, z: 0, w: 1}
  m_LocalPosition: {x: 0, y: 0, z: 0}
  m_LocalScale: {x: 1, y: 1, z: 1}
  m_Children: []
  m_Father: {fileID: 266235654}
  m_RootOrder: 1
  m_LocalEulerAnglesHint: {x: 0, y: 0, z: 0}
  m_AnchorMin: {x: 0, y: 0}
  m_AnchorMax: {x: 1, y: 1}
  m_AnchoredPosition: {x: 0, y: -216.70001}
  m_SizeDelta: {x: 0, y: -197}
  m_Pivot: {x: -0.1, y: 1.1}
--- !u!114 &851121309
MonoBehaviour:
  m_ObjectHideFlags: 0
  m_CorrespondingSourceObject: {fileID: 0}
  m_PrefabInstance: {fileID: 0}
  m_PrefabAsset: {fileID: 0}
  m_GameObject: {fileID: 851121307}
  m_Enabled: 1
  m_EditorHideFlags: 0
  m_Script: {fileID: 11500000, guid: 5f7201a12d95ffc409449d95f23cf332, type: 3}
  m_Name: 
  m_EditorClassIdentifier: 
  m_Material: {fileID: 0}
  m_Color: {r: 1, g: 1, b: 1, a: 1}
  m_RaycastTarget: 0
  m_Maskable: 1
  m_OnCullStateChanged:
    m_PersistentCalls:
      m_Calls: []
  m_FontData:
    m_Font: {fileID: 12800000, guid: 0ebbcec4dd8e2f040b163f10df7e8382, type: 3}
    m_FontSize: 33
    m_FontStyle: 0
    m_BestFit: 0
    m_MinSize: 3
    m_MaxSize: 40
    m_Alignment: 0
    m_AlignByGeometry: 0
    m_RichText: 1
    m_HorizontalOverflow: 0
    m_VerticalOverflow: 0
    m_LineSpacing: 1
  m_Text: DEBUG INFO
--- !u!222 &851121310
CanvasRenderer:
  m_ObjectHideFlags: 0
  m_CorrespondingSourceObject: {fileID: 0}
  m_PrefabInstance: {fileID: 0}
  m_PrefabAsset: {fileID: 0}
  m_GameObject: {fileID: 851121307}
  m_CullTransparentMesh: 0
--- !u!4 &922911371 stripped
Transform:
  m_CorrespondingSourceObject: {fileID: 9165342806373082573, guid: a789d0b9ce34ff842880e59ef8261779,
    type: 3}
  m_PrefabInstance: {fileID: 645905793}
  m_PrefabAsset: {fileID: 0}
--- !u!114 &923870874 stripped
MonoBehaviour:
  m_CorrespondingSourceObject: {fileID: 7443350870406903087, guid: 5473e17f2443cd74c824a7b89f0585f1,
    type: 3}
  m_PrefabInstance: {fileID: 670518690}
  m_PrefabAsset: {fileID: 0}
  m_GameObject: {fileID: 0}
  m_Enabled: 1
  m_EditorHideFlags: 0
  m_Script: {fileID: 11500000, guid: 3f796aa4482c22f408cdd14e98bcceac, type: 3}
  m_Name: 
  m_EditorClassIdentifier: 
--- !u!1001 &1065546808
PrefabInstance:
  m_ObjectHideFlags: 0
  serializedVersion: 2
  m_Modification:
    m_TransformParent: {fileID: 1682325115}
    m_Modifications:
    - target: {fileID: 7597927799449061377, guid: 0f50f6c994c01194195f0b739e15686d,
        type: 3}
      propertyPath: m_LocalPosition.x
      value: 0.29149926
      objectReference: {fileID: 0}
    - target: {fileID: 7597927799449061377, guid: 0f50f6c994c01194195f0b739e15686d,
        type: 3}
      propertyPath: m_LocalPosition.y
      value: -0.21329011
      objectReference: {fileID: 0}
    - target: {fileID: 7597927799449061377, guid: 0f50f6c994c01194195f0b739e15686d,
        type: 3}
      propertyPath: m_LocalPosition.z
      value: 0.004267931
      objectReference: {fileID: 0}
    - target: {fileID: 7597927799449061377, guid: 0f50f6c994c01194195f0b739e15686d,
        type: 3}
      propertyPath: m_LocalRotation.x
      value: -0
      objectReference: {fileID: 0}
    - target: {fileID: 7597927799449061377, guid: 0f50f6c994c01194195f0b739e15686d,
        type: 3}
      propertyPath: m_LocalRotation.y
      value: -0
      objectReference: {fileID: 0}
    - target: {fileID: 7597927799449061377, guid: 0f50f6c994c01194195f0b739e15686d,
        type: 3}
      propertyPath: m_LocalRotation.z
      value: -0
      objectReference: {fileID: 0}
    - target: {fileID: 7597927799449061377, guid: 0f50f6c994c01194195f0b739e15686d,
        type: 3}
      propertyPath: m_LocalRotation.w
      value: 1
      objectReference: {fileID: 0}
    - target: {fileID: 7597927799449061377, guid: 0f50f6c994c01194195f0b739e15686d,
        type: 3}
      propertyPath: m_RootOrder
      value: 3
      objectReference: {fileID: 0}
    - target: {fileID: 7597927799449061377, guid: 0f50f6c994c01194195f0b739e15686d,
        type: 3}
      propertyPath: m_LocalEulerAnglesHint.x
      value: 0
      objectReference: {fileID: 0}
    - target: {fileID: 7597927799449061377, guid: 0f50f6c994c01194195f0b739e15686d,
        type: 3}
      propertyPath: m_LocalEulerAnglesHint.y
      value: 0
      objectReference: {fileID: 0}
    - target: {fileID: 7597927799449061377, guid: 0f50f6c994c01194195f0b739e15686d,
        type: 3}
      propertyPath: m_LocalEulerAnglesHint.z
      value: 0
      objectReference: {fileID: 0}
    - target: {fileID: 7597927799449061383, guid: 0f50f6c994c01194195f0b739e15686d,
        type: 3}
      propertyPath: m_Materials.Array.data[0]
      value: 
      objectReference: {fileID: 2100000, guid: 53dec95df1424f74b83466b9d02ae8ba, type: 2}
    - target: {fileID: 7597927799449061386, guid: 0f50f6c994c01194195f0b739e15686d,
        type: 3}
      propertyPath: ParentToHands
      value: 0
      objectReference: {fileID: 0}
    - target: {fileID: 7597927799449061387, guid: 0f50f6c994c01194195f0b739e15686d,
        type: 3}
      propertyPath: m_Name
      value: BlockPink
      objectReference: {fileID: 0}
    - target: {fileID: 7597927799449061387, guid: 0f50f6c994c01194195f0b739e15686d,
        type: 3}
      propertyPath: m_Layer
      value: 10
      objectReference: {fileID: 0}
    m_RemovedComponents:
    - {fileID: 7597927799449061405, guid: 0f50f6c994c01194195f0b739e15686d, type: 3}
    - {fileID: 7597927799449061378, guid: 0f50f6c994c01194195f0b739e15686d, type: 3}
    - {fileID: 7597927799449061379, guid: 0f50f6c994c01194195f0b739e15686d, type: 3}
  m_SourcePrefab: {fileID: 100100000, guid: 0f50f6c994c01194195f0b739e15686d, type: 3}
--- !u!4 &1065546809 stripped
Transform:
  m_CorrespondingSourceObject: {fileID: 7597927799449061377, guid: 0f50f6c994c01194195f0b739e15686d,
    type: 3}
  m_PrefabInstance: {fileID: 1065546808}
  m_PrefabAsset: {fileID: 0}
--- !u!1 &1142353732
GameObject:
  m_ObjectHideFlags: 0
  m_CorrespondingSourceObject: {fileID: 0}
  m_PrefabInstance: {fileID: 0}
  m_PrefabAsset: {fileID: 0}
  serializedVersion: 6
  m_Component:
  - component: {fileID: 1142353734}
  - component: {fileID: 1142353733}
  m_Layer: 0
  m_Name: Spot Light
  m_TagString: Untagged
  m_Icon: {fileID: 0}
  m_NavMeshLayer: 0
  m_StaticEditorFlags: 0
  m_IsActive: 1
--- !u!108 &1142353733
Light:
  m_ObjectHideFlags: 0
  m_CorrespondingSourceObject: {fileID: 0}
  m_PrefabInstance: {fileID: 0}
  m_PrefabAsset: {fileID: 0}
  m_GameObject: {fileID: 1142353732}
  m_Enabled: 1
  serializedVersion: 10
  m_Type: 1
  m_Shape: 0
  m_Color: {r: 1, g: 1, b: 1, a: 1}
  m_Intensity: 1
  m_Range: 25
  m_SpotAngle: 70
  m_InnerSpotAngle: 53.42987
  m_CookieSize: 10
  m_Shadows:
    m_Type: 2
    m_Resolution: -1
    m_CustomResolution: -1
    m_Strength: 1
    m_Bias: 0.05
    m_NormalBias: 0.4
    m_NearPlane: 0.2
    m_CullingMatrixOverride:
      e00: 1
      e01: 0
      e02: 0
      e03: 0
      e10: 0
      e11: 1
      e12: 0
      e13: 0
      e20: 0
      e21: 0
      e22: 1
      e23: 0
      e30: 0
      e31: 0
      e32: 0
      e33: 1
    m_UseCullingMatrixOverride: 0
  m_Cookie: {fileID: 0}
  m_DrawHalo: 0
  m_Flare: {fileID: 0}
  m_RenderMode: 1
  m_CullingMask:
    serializedVersion: 2
    m_Bits: 257
  m_RenderingLayerMask: 1
  m_Lightmapping: 4
  m_LightShadowCasterMode: 0
  m_AreaSize: {x: 1, y: 1}
  m_BounceIntensity: 1
  m_ColorTemperature: 6570
  m_UseColorTemperature: 0
  m_BoundingSphereOverride: {x: 0, y: 0, z: 0, w: 0}
  m_UseBoundingSphereOverride: 0
  m_ShadowRadius: 0
  m_ShadowAngle: 0
--- !u!4 &1142353734
Transform:
  m_ObjectHideFlags: 0
  m_CorrespondingSourceObject: {fileID: 0}
  m_PrefabInstance: {fileID: 0}
  m_PrefabAsset: {fileID: 0}
  m_GameObject: {fileID: 1142353732}
  m_LocalRotation: {x: 0.7071068, y: 0, z: 0, w: 0.7071068}
  m_LocalPosition: {x: 0, y: 2.8, z: 2.01}
  m_LocalScale: {x: 1, y: 1, z: 1}
  m_Children: []
  m_Father: {fileID: 0}
  m_RootOrder: 3
  m_LocalEulerAnglesHint: {x: 90, y: 0, z: 0}
--- !u!1001 &1158622622
PrefabInstance:
  m_ObjectHideFlags: 0
  serializedVersion: 2
  m_Modification:
    m_TransformParent: {fileID: 1682325115}
    m_Modifications:
    - target: {fileID: 364518689470124506, guid: 624ef7d780846b342988732cbb919663,
        type: 3}
      propertyPath: onButtonDown.m_PersistentCalls.m_Calls.Array.size
      value: 1
      objectReference: {fileID: 0}
    - target: {fileID: 364518689470124506, guid: 624ef7d780846b342988732cbb919663,
        type: 3}
      propertyPath: onButtonDown.m_PersistentCalls.m_Calls.Array.data[0].m_Mode
      value: 1
      objectReference: {fileID: 0}
    - target: {fileID: 364518689470124506, guid: 624ef7d780846b342988732cbb919663,
        type: 3}
      propertyPath: onButtonDown.m_PersistentCalls.m_Calls.Array.data[0].m_CallState
      value: 2
      objectReference: {fileID: 0}
    - target: {fileID: 364518689470124506, guid: 624ef7d780846b342988732cbb919663,
        type: 3}
      propertyPath: onButtonDown.m_PersistentCalls.m_Calls.Array.data[0].m_Target
      value: 
      objectReference: {fileID: 1394665952}
    - target: {fileID: 364518689470124506, guid: 624ef7d780846b342988732cbb919663,
        type: 3}
      propertyPath: onButtonDown.m_PersistentCalls.m_Calls.Array.data[0].m_MethodName
      value: ClearDrawing
      objectReference: {fileID: 0}
    - target: {fileID: 364518689470124506, guid: 624ef7d780846b342988732cbb919663,
        type: 3}
      propertyPath: onButtonDown.m_PersistentCalls.m_Calls.Array.data[0].m_Arguments.m_ObjectArgumentAssemblyTypeName
      value: UnityEngine.Object, UnityEngine
      objectReference: {fileID: 0}
    - target: {fileID: 6396212367946863588, guid: 624ef7d780846b342988732cbb919663,
        type: 3}
      propertyPath: m_Name
      value: ButtonClearDrawing
      objectReference: {fileID: 0}
    - target: {fileID: 6396212367946863591, guid: 624ef7d780846b342988732cbb919663,
        type: 3}
      propertyPath: m_LocalPosition.x
      value: 0.1388
      objectReference: {fileID: 0}
    - target: {fileID: 6396212367946863591, guid: 624ef7d780846b342988732cbb919663,
        type: 3}
      propertyPath: m_LocalPosition.y
      value: -0.2032
      objectReference: {fileID: 0}
    - target: {fileID: 6396212367946863591, guid: 624ef7d780846b342988732cbb919663,
        type: 3}
      propertyPath: m_LocalPosition.z
      value: 0.0181
      objectReference: {fileID: 0}
    - target: {fileID: 6396212367946863591, guid: 624ef7d780846b342988732cbb919663,
        type: 3}
      propertyPath: m_LocalRotation.x
      value: -0.5039034
      objectReference: {fileID: 0}
    - target: {fileID: 6396212367946863591, guid: 624ef7d780846b342988732cbb919663,
        type: 3}
      propertyPath: m_LocalRotation.y
      value: 0.20136708
      objectReference: {fileID: 0}
    - target: {fileID: 6396212367946863591, guid: 624ef7d780846b342988732cbb919663,
        type: 3}
      propertyPath: m_LocalRotation.z
      value: 0.07022255
      objectReference: {fileID: 0}
    - target: {fileID: 6396212367946863591, guid: 624ef7d780846b342988732cbb919663,
        type: 3}
      propertyPath: m_LocalRotation.w
      value: 0.83701944
      objectReference: {fileID: 0}
    - target: {fileID: 6396212367946863591, guid: 624ef7d780846b342988732cbb919663,
        type: 3}
      propertyPath: m_RootOrder
      value: 11
      objectReference: {fileID: 0}
    - target: {fileID: 6396212367946863591, guid: 624ef7d780846b342988732cbb919663,
        type: 3}
      propertyPath: m_LocalEulerAnglesHint.x
      value: -60.673004
      objectReference: {fileID: 0}
    - target: {fileID: 6396212367946863591, guid: 624ef7d780846b342988732cbb919663,
        type: 3}
      propertyPath: m_LocalEulerAnglesHint.y
      value: 32.939003
      objectReference: {fileID: 0}
    - target: {fileID: 6396212367946863591, guid: 624ef7d780846b342988732cbb919663,
        type: 3}
      propertyPath: m_LocalEulerAnglesHint.z
      value: -10.0390005
      objectReference: {fileID: 0}
    - target: {fileID: 6396212367946863591, guid: 624ef7d780846b342988732cbb919663,
        type: 3}
      propertyPath: m_LocalScale.x
      value: 0.75
      objectReference: {fileID: 0}
    - target: {fileID: 6396212367946863591, guid: 624ef7d780846b342988732cbb919663,
        type: 3}
      propertyPath: m_LocalScale.y
      value: 0.75
      objectReference: {fileID: 0}
    - target: {fileID: 6396212367946863591, guid: 624ef7d780846b342988732cbb919663,
        type: 3}
      propertyPath: m_LocalScale.z
      value: 0.75
      objectReference: {fileID: 0}
    m_RemovedComponents:
    - {fileID: 364518690687372469, guid: 624ef7d780846b342988732cbb919663, type: 3}
  m_SourcePrefab: {fileID: 100100000, guid: 624ef7d780846b342988732cbb919663, type: 3}
--- !u!4 &1158622623 stripped
Transform:
  m_CorrespondingSourceObject: {fileID: 6396212367946863591, guid: 624ef7d780846b342988732cbb919663,
    type: 3}
  m_PrefabInstance: {fileID: 1158622622}
  m_PrefabAsset: {fileID: 0}
--- !u!1 &1204733982
GameObject:
  m_ObjectHideFlags: 0
  m_CorrespondingSourceObject: {fileID: 0}
  m_PrefabInstance: {fileID: 0}
  m_PrefabAsset: {fileID: 0}
  serializedVersion: 6
  m_Component:
  - component: {fileID: 1204733983}
  - component: {fileID: 1204733984}
  m_Layer: 0
  m_Name: ScaleWithTransform (3)
  m_TagString: Untagged
  m_Icon: {fileID: 0}
  m_NavMeshLayer: 0
  m_StaticEditorFlags: 0
  m_IsActive: 1
--- !u!4 &1204733983
Transform:
  m_ObjectHideFlags: 0
  m_CorrespondingSourceObject: {fileID: 0}
  m_PrefabInstance: {fileID: 0}
  m_PrefabAsset: {fileID: 0}
  m_GameObject: {fileID: 1204733982}
  m_LocalRotation: {x: -0, y: 0.12049973, z: -0, w: 0.9927134}
  m_LocalPosition: {x: -0.45864213, y: -0.198, z: -0.2460089}
  m_LocalScale: {x: 0.5, y: 0.5, z: 0.17654014}
  m_Children:
  - {fileID: 1481775488}
  m_Father: {fileID: 1682325115}
  m_RootOrder: 7
  m_LocalEulerAnglesHint: {x: 0, y: 13.842001, z: 0}
--- !u!114 &1204733984
MonoBehaviour:
  m_ObjectHideFlags: 0
  m_CorrespondingSourceObject: {fileID: 0}
  m_PrefabInstance: {fileID: 0}
  m_PrefabAsset: {fileID: 0}
  m_GameObject: {fileID: 1204733982}
  m_Enabled: 1
  m_EditorHideFlags: 0
  m_Script: {fileID: 11500000, guid: 16c956163a2c8c34cbc059e03bc750ae, type: 3}
  m_Name: 
  m_EditorClassIdentifier: 
  Begin: {fileID: 809842561}
  End: {fileID: 265046194}
  DoUpdate: 1
  DoLateUpdate: 0
  LookAtTarget: 1
--- !u!1 &1394665951
GameObject:
  m_ObjectHideFlags: 0
  m_CorrespondingSourceObject: {fileID: 0}
  m_PrefabInstance: {fileID: 0}
  m_PrefabAsset: {fileID: 0}
  serializedVersion: 6
  m_Component:
  - component: {fileID: 1394665953}
  - component: {fileID: 1394665952}
  m_Layer: 0
  m_Name: HandDemoScript
  m_TagString: Untagged
  m_Icon: {fileID: 0}
  m_NavMeshLayer: 0
  m_StaticEditorFlags: 0
  m_IsActive: 1
--- !u!114 &1394665952
MonoBehaviour:
  m_ObjectHideFlags: 0
  m_CorrespondingSourceObject: {fileID: 0}
  m_PrefabInstance: {fileID: 0}
  m_PrefabAsset: {fileID: 0}
  m_GameObject: {fileID: 1394665951}
  m_Enabled: 1
  m_EditorHideFlags: 0
  m_Script: {fileID: 11500000, guid: f97f82d889eefa04fbcd5631b43a3d65, type: 3}
  m_Name: 
  m_EditorClassIdentifier: 
  HandTrackingController: {fileID: 923870874}
  DebugText: {fileID: 851121309}
  PinchTypeText: {fileID: 8858460720791556759}
  DrawMode: 0
  DrawMaterial: {fileID: 2100000, guid: eca70ad1867acb141a7914818d64faa8, type: 2}
--- !u!4 &1394665953
Transform:
  m_ObjectHideFlags: 0
  m_CorrespondingSourceObject: {fileID: 0}
  m_PrefabInstance: {fileID: 0}
  m_PrefabAsset: {fileID: 0}
  m_GameObject: {fileID: 1394665951}
  m_LocalRotation: {x: 0, y: 0, z: 0, w: 1}
  m_LocalPosition: {x: 0.025231535, y: -0.11998874, z: 0.7087296}
  m_LocalScale: {x: 1, y: 1, z: 1}
  m_Children: []
  m_Father: {fileID: 0}
  m_RootOrder: 5
  m_LocalEulerAnglesHint: {x: 0, y: 0, z: 0}
--- !u!1 &1481775487
GameObject:
  m_ObjectHideFlags: 0
  m_CorrespondingSourceObject: {fileID: 0}
  m_PrefabInstance: {fileID: 0}
  m_PrefabAsset: {fileID: 0}
  serializedVersion: 6
  m_Component:
  - component: {fileID: 1481775488}
  - component: {fileID: 1481775492}
  - component: {fileID: 1481775491}
  - component: {fileID: 1481775490}
  - component: {fileID: 1481775489}
  m_Layer: 0
  m_Name: Arm
  m_TagString: Untagged
  m_Icon: {fileID: 0}
  m_NavMeshLayer: 0
  m_StaticEditorFlags: 0
  m_IsActive: 1
--- !u!4 &1481775488
Transform:
  m_ObjectHideFlags: 0
  m_CorrespondingSourceObject: {fileID: 0}
  m_PrefabInstance: {fileID: 0}
  m_PrefabAsset: {fileID: 0}
  m_GameObject: {fileID: 1481775487}
  m_LocalRotation: {x: -0, y: -0.7071068, z: 0.7071068, w: 0}
  m_LocalPosition: {x: 0, y: 0, z: 0}
  m_LocalScale: {x: 0.03000001, y: 0.5, z: 0.030000003}
  m_Children: []
  m_Father: {fileID: 1204733983}
  m_RootOrder: 0
  m_LocalEulerAnglesHint: {x: 90, y: 0, z: 90}
--- !u!65 &1481775489
BoxCollider:
  m_ObjectHideFlags: 0
  m_CorrespondingSourceObject: {fileID: 0}
  m_PrefabInstance: {fileID: 0}
  m_PrefabAsset: {fileID: 0}
  m_GameObject: {fileID: 1481775487}
  m_Material: {fileID: 0}
  m_IsTrigger: 0
  m_Enabled: 1
  serializedVersion: 2
  m_Size: {x: 0.9999992, y: 1.4608768, z: 0.9999992}
  m_Center: {x: -0.000000007228745, y: -0.05142629, z: 0.0000001852434}
--- !u!114 &1481775490
MonoBehaviour:
  m_ObjectHideFlags: 0
  m_CorrespondingSourceObject: {fileID: 0}
  m_PrefabInstance: {fileID: 0}
  m_PrefabAsset: {fileID: 0}
  m_GameObject: {fileID: 1481775487}
  m_Enabled: 0
  m_EditorHideFlags: 0
  m_Script: {fileID: 11500000, guid: 16c956163a2c8c34cbc059e03bc750ae, type: 3}
  m_Name: 
  m_EditorClassIdentifier: 
  Begin: {fileID: 0}
  End: {fileID: 265046194}
  DoUpdate: 1
  DoLateUpdate: 0
  LookAtTarget: 0
--- !u!23 &1481775491
MeshRenderer:
  m_ObjectHideFlags: 0
  m_CorrespondingSourceObject: {fileID: 0}
  m_PrefabInstance: {fileID: 0}
  m_PrefabAsset: {fileID: 0}
  m_GameObject: {fileID: 1481775487}
  m_Enabled: 1
  m_CastShadows: 1
  m_ReceiveShadows: 1
  m_DynamicOccludee: 1
  m_MotionVectors: 1
  m_LightProbeUsage: 1
  m_ReflectionProbeUsage: 1
  m_RayTracingMode: 2
  m_RenderingLayerMask: 1
  m_RendererPriority: 0
  m_Materials:
  - {fileID: 2100000, guid: 27247309b9ec8ec4d8629b6ee88cb5be, type: 2}
  m_StaticBatchInfo:
    firstSubMesh: 0
    subMeshCount: 0
  m_StaticBatchRoot: {fileID: 0}
  m_ProbeAnchor: {fileID: 0}
  m_LightProbeVolumeOverride: {fileID: 0}
  m_ScaleInLightmap: 1
  m_ReceiveGI: 1
  m_PreserveUVs: 0
  m_IgnoreNormalsForChartDetection: 0
  m_ImportantGI: 0
  m_StitchLightmapSeams: 1
  m_SelectedEditorRenderState: 3
  m_MinimumChartSize: 4
  m_AutoUVMaxDistance: 0.5
  m_AutoUVMaxAngle: 89
  m_LightmapParameters: {fileID: 0}
  m_SortingLayerID: 0
  m_SortingLayer: 0
  m_SortingOrder: 0
--- !u!33 &1481775492
MeshFilter:
  m_ObjectHideFlags: 0
  m_CorrespondingSourceObject: {fileID: 0}
  m_PrefabInstance: {fileID: 0}
  m_PrefabAsset: {fileID: 0}
  m_GameObject: {fileID: 1481775487}
  m_Mesh: {fileID: 10206, guid: 0000000000000000e000000000000000, type: 0}
--- !u!1 &1682325114
GameObject:
  m_ObjectHideFlags: 0
  m_CorrespondingSourceObject: {fileID: 0}
  m_PrefabInstance: {fileID: 0}
  m_PrefabAsset: {fileID: 0}
  serializedVersion: 6
  m_Component:
  - component: {fileID: 1682325115}
  m_Layer: 0
  m_Name: Items
  m_TagString: Untagged
  m_Icon: {fileID: 0}
  m_NavMeshLayer: 0
  m_StaticEditorFlags: 0
  m_IsActive: 1
--- !u!4 &1682325115
Transform:
  m_ObjectHideFlags: 0
  m_CorrespondingSourceObject: {fileID: 0}
  m_PrefabInstance: {fileID: 0}
  m_PrefabAsset: {fileID: 0}
  m_GameObject: {fileID: 1682325114}
  m_LocalRotation: {x: 0, y: 0, z: 0, w: 1}
  m_LocalPosition: {x: 0.048398826, y: 0.148, z: 0.35173208}
  m_LocalScale: {x: 1, y: 1, z: 1}
  m_Children:
  - {fileID: 922911371}
  - {fileID: 266235655}
  - {fileID: 2110311675}
  - {fileID: 1065546809}
  - {fileID: 2124827796}
  - {fileID: 403600947}
  - {fileID: 155062192}
  - {fileID: 1204733983}
  - {fileID: 265046194}
  - {fileID: 809842561}
  - {fileID: 2294232361330779907}
  - {fileID: 1158622623}
  m_Father: {fileID: 0}
  m_RootOrder: 4
  m_LocalEulerAnglesHint: {x: 0, y: 0, z: 0}
--- !u!4 &1775954853 stripped
Transform:
  m_CorrespondingSourceObject: {fileID: 6396212369312976514, guid: 624ef7d780846b342988732cbb919663,
    type: 3}
  m_PrefabInstance: {fileID: 5122045711986029796}
  m_PrefabAsset: {fileID: 0}
--- !u!1001 &2110311674
PrefabInstance:
  m_ObjectHideFlags: 0
  serializedVersion: 2
  m_Modification:
    m_TransformParent: {fileID: 1682325115}
    m_Modifications:
    - target: {fileID: 8090420015729875172, guid: 99f47e11765001245a11dc1219c90ca0,
        type: 3}
      propertyPath: m_IsActive
      value: 1
      objectReference: {fileID: 0}
    - target: {fileID: 8090420016394933065, guid: 99f47e11765001245a11dc1219c90ca0,
        type: 3}
      propertyPath: m_IsActive
      value: 0
      objectReference: {fileID: 0}
    - target: {fileID: 8090420016693408348, guid: 99f47e11765001245a11dc1219c90ca0,
        type: 3}
      propertyPath: m_Name
      value: Slide
      objectReference: {fileID: 0}
    - target: {fileID: 8090420016693408349, guid: 99f47e11765001245a11dc1219c90ca0,
        type: 3}
      propertyPath: m_LocalPosition.x
      value: 0.49860117
      objectReference: {fileID: 0}
    - target: {fileID: 8090420016693408349, guid: 99f47e11765001245a11dc1219c90ca0,
        type: 3}
      propertyPath: m_LocalPosition.y
      value: 0.014709886
      objectReference: {fileID: 0}
    - target: {fileID: 8090420016693408349, guid: 99f47e11765001245a11dc1219c90ca0,
        type: 3}
      propertyPath: m_LocalPosition.z
      value: 0.08626792
      objectReference: {fileID: 0}
    - target: {fileID: 8090420016693408349, guid: 99f47e11765001245a11dc1219c90ca0,
        type: 3}
      propertyPath: m_LocalRotation.x
      value: -0
      objectReference: {fileID: 0}
    - target: {fileID: 8090420016693408349, guid: 99f47e11765001245a11dc1219c90ca0,
        type: 3}
      propertyPath: m_LocalRotation.y
      value: 0.23451321
      objectReference: {fileID: 0}
    - target: {fileID: 8090420016693408349, guid: 99f47e11765001245a11dc1219c90ca0,
        type: 3}
      propertyPath: m_LocalRotation.z
      value: -0
      objectReference: {fileID: 0}
    - target: {fileID: 8090420016693408349, guid: 99f47e11765001245a11dc1219c90ca0,
        type: 3}
      propertyPath: m_LocalRotation.w
      value: 0.972113
      objectReference: {fileID: 0}
    - target: {fileID: 8090420016693408349, guid: 99f47e11765001245a11dc1219c90ca0,
        type: 3}
      propertyPath: m_RootOrder
      value: 2
      objectReference: {fileID: 0}
    - target: {fileID: 8090420016693408349, guid: 99f47e11765001245a11dc1219c90ca0,
        type: 3}
      propertyPath: m_LocalEulerAnglesHint.x
      value: 0
      objectReference: {fileID: 0}
    - target: {fileID: 8090420016693408349, guid: 99f47e11765001245a11dc1219c90ca0,
        type: 3}
      propertyPath: m_LocalEulerAnglesHint.y
      value: 27.126001
      objectReference: {fileID: 0}
    - target: {fileID: 8090420016693408349, guid: 99f47e11765001245a11dc1219c90ca0,
        type: 3}
      propertyPath: m_LocalEulerAnglesHint.z
      value: 0
      objectReference: {fileID: 0}
    m_RemovedComponents:
    - {fileID: 8090420016237831647, guid: 99f47e11765001245a11dc1219c90ca0, type: 3}
    - {fileID: 478409063, guid: 99f47e11765001245a11dc1219c90ca0, type: 3}
  m_SourcePrefab: {fileID: 100100000, guid: 99f47e11765001245a11dc1219c90ca0, type: 3}
--- !u!4 &2110311675 stripped
Transform:
  m_CorrespondingSourceObject: {fileID: 8090420016693408349, guid: 99f47e11765001245a11dc1219c90ca0,
    type: 3}
  m_PrefabInstance: {fileID: 2110311674}
  m_PrefabAsset: {fileID: 0}
--- !u!1001 &2124827795
PrefabInstance:
  m_ObjectHideFlags: 0
  serializedVersion: 2
  m_Modification:
    m_TransformParent: {fileID: 1682325115}
    m_Modifications:
    - target: {fileID: 7597927799449061377, guid: 0f50f6c994c01194195f0b739e15686d,
        type: 3}
      propertyPath: m_LocalPosition.x
      value: 0.42697862
      objectReference: {fileID: 0}
    - target: {fileID: 7597927799449061377, guid: 0f50f6c994c01194195f0b739e15686d,
        type: 3}
      propertyPath: m_LocalPosition.y
      value: -0.21029012
      objectReference: {fileID: 0}
    - target: {fileID: 7597927799449061377, guid: 0f50f6c994c01194195f0b739e15686d,
        type: 3}
      propertyPath: m_LocalPosition.z
      value: 0.0014337301
      objectReference: {fileID: 0}
    - target: {fileID: 7597927799449061377, guid: 0f50f6c994c01194195f0b739e15686d,
        type: 3}
      propertyPath: m_LocalRotation.x
      value: -0
      objectReference: {fileID: 0}
    - target: {fileID: 7597927799449061377, guid: 0f50f6c994c01194195f0b739e15686d,
        type: 3}
      propertyPath: m_LocalRotation.y
      value: -0
      objectReference: {fileID: 0}
    - target: {fileID: 7597927799449061377, guid: 0f50f6c994c01194195f0b739e15686d,
        type: 3}
      propertyPath: m_LocalRotation.z
      value: -0
      objectReference: {fileID: 0}
    - target: {fileID: 7597927799449061377, guid: 0f50f6c994c01194195f0b739e15686d,
        type: 3}
      propertyPath: m_LocalRotation.w
      value: 1
      objectReference: {fileID: 0}
    - target: {fileID: 7597927799449061377, guid: 0f50f6c994c01194195f0b739e15686d,
        type: 3}
      propertyPath: m_RootOrder
      value: 4
      objectReference: {fileID: 0}
    - target: {fileID: 7597927799449061377, guid: 0f50f6c994c01194195f0b739e15686d,
        type: 3}
      propertyPath: m_LocalEulerAnglesHint.x
      value: 0
      objectReference: {fileID: 0}
    - target: {fileID: 7597927799449061377, guid: 0f50f6c994c01194195f0b739e15686d,
        type: 3}
      propertyPath: m_LocalEulerAnglesHint.y
      value: 0
      objectReference: {fileID: 0}
    - target: {fileID: 7597927799449061377, guid: 0f50f6c994c01194195f0b739e15686d,
        type: 3}
      propertyPath: m_LocalEulerAnglesHint.z
      value: 0
      objectReference: {fileID: 0}
    - target: {fileID: 7597927799449061383, guid: 0f50f6c994c01194195f0b739e15686d,
        type: 3}
      propertyPath: m_Materials.Array.data[0]
      value: 
      objectReference: {fileID: 2100000, guid: 810568a8d5fe6de4490cd0917434da40, type: 2}
    - target: {fileID: 7597927799449061386, guid: 0f50f6c994c01194195f0b739e15686d,
        type: 3}
      propertyPath: ParentToHands
      value: 0
      objectReference: {fileID: 0}
    - target: {fileID: 7597927799449061387, guid: 0f50f6c994c01194195f0b739e15686d,
        type: 3}
      propertyPath: m_Name
      value: BlockTeal
      objectReference: {fileID: 0}
    - target: {fileID: 7597927799449061387, guid: 0f50f6c994c01194195f0b739e15686d,
        type: 3}
      propertyPath: m_Layer
      value: 10
      objectReference: {fileID: 0}
    m_RemovedComponents:
    - {fileID: 7597927799449061405, guid: 0f50f6c994c01194195f0b739e15686d, type: 3}
    - {fileID: 7597927799449061378, guid: 0f50f6c994c01194195f0b739e15686d, type: 3}
    - {fileID: 7597927799449061379, guid: 0f50f6c994c01194195f0b739e15686d, type: 3}
  m_SourcePrefab: {fileID: 100100000, guid: 0f50f6c994c01194195f0b739e15686d, type: 3}
--- !u!4 &2124827796 stripped
Transform:
  m_CorrespondingSourceObject: {fileID: 7597927799449061377, guid: 0f50f6c994c01194195f0b739e15686d,
    type: 3}
  m_PrefabInstance: {fileID: 2124827795}
  m_PrefabAsset: {fileID: 0}
--- !u!114 &831789001184206837
MonoBehaviour:
  m_ObjectHideFlags: 0
  m_CorrespondingSourceObject: {fileID: 0}
  m_PrefabInstance: {fileID: 0}
  m_PrefabAsset: {fileID: 0}
  m_GameObject: {fileID: 4088779761334020594}
  m_Enabled: 1
  m_EditorHideFlags: 0
  m_Script: {fileID: 11500000, guid: 0cd44c1031e13a943bb63640046fad76, type: 3}
  m_Name: 
  m_EditorClassIdentifier: 
  m_UiScaleMode: 0
  m_ReferencePixelsPerUnit: 100
  m_ScaleFactor: 1
  m_ReferenceResolution: {x: 800, y: 600}
  m_ScreenMatchMode: 0
  m_MatchWidthOrHeight: 0
  m_PhysicalUnit: 3
  m_FallbackScreenDPI: 96
  m_DefaultSpriteDPI: 96
  m_DynamicPixelsPerUnit: 3
--- !u!114 &831789002156695761
MonoBehaviour:
  m_ObjectHideFlags: 0
  m_CorrespondingSourceObject: {fileID: 0}
  m_PrefabInstance: {fileID: 0}
  m_PrefabAsset: {fileID: 0}
  m_GameObject: {fileID: 4088779762306635478}
  m_Enabled: 1
  m_EditorHideFlags: 0
  m_Script: {fileID: 11500000, guid: 0cd44c1031e13a943bb63640046fad76, type: 3}
  m_Name: 
  m_EditorClassIdentifier: 
  m_UiScaleMode: 0
  m_ReferencePixelsPerUnit: 100
  m_ScaleFactor: 1
  m_ReferenceResolution: {x: 800, y: 600}
  m_ScreenMatchMode: 0
  m_MatchWidthOrHeight: 0
  m_PhysicalUnit: 3
  m_FallbackScreenDPI: 96
  m_DefaultSpriteDPI: 96
  m_DynamicPixelsPerUnit: 3
--- !u!4 &2294232361330779907 stripped
Transform:
  m_CorrespondingSourceObject: {fileID: 6396212367946863591, guid: 624ef7d780846b342988732cbb919663,
    type: 3}
  m_PrefabInstance: {fileID: 5122045711986029796}
  m_PrefabAsset: {fileID: 0}
--- !u!223 &4088779761334020553
Canvas:
  m_ObjectHideFlags: 0
  m_CorrespondingSourceObject: {fileID: 0}
  m_PrefabInstance: {fileID: 0}
  m_PrefabAsset: {fileID: 0}
  m_GameObject: {fileID: 4088779761334020594}
  m_Enabled: 1
  serializedVersion: 3
  m_RenderMode: 2
  m_Camera: {fileID: 0}
  m_PlaneDistance: 100
  m_PixelPerfect: 0
  m_ReceivesEvents: 1
  m_OverrideSorting: 0
  m_OverridePixelPerfect: 0
  m_SortingBucketNormalizedSize: 0
  m_AdditionalShaderChannelsFlag: 25
  m_SortingLayerID: 0
  m_SortingOrder: -100
  m_TargetDisplay: 0
--- !u!222 &4088779761334020557
CanvasRenderer:
  m_ObjectHideFlags: 0
  m_CorrespondingSourceObject: {fileID: 0}
  m_PrefabInstance: {fileID: 0}
  m_PrefabAsset: {fileID: 0}
  m_GameObject: {fileID: 4088779761334020594}
  m_CullTransparentMesh: 0
--- !u!114 &4088779761334020559
MonoBehaviour:
  m_ObjectHideFlags: 0
  m_CorrespondingSourceObject: {fileID: 0}
  m_PrefabInstance: {fileID: 0}
  m_PrefabAsset: {fileID: 0}
  m_GameObject: {fileID: 4088779761334020594}
  m_Enabled: 0
  m_EditorHideFlags: 0
  m_Script: {fileID: 11500000, guid: 7aaf960227867044282d921171d2d7ac, type: 3}
  m_Name: 
  m_EditorClassIdentifier: 
  m_IgnoreReversedGraphics: 1
  m_BlockingObjects: 3
  m_BlockingMask:
    serializedVersion: 2
    m_Bits: 4294967295
  pointer: {fileID: 0}
  sortOrder: 0
--- !u!1 &4088779761334020594
GameObject:
  m_ObjectHideFlags: 0
  m_CorrespondingSourceObject: {fileID: 0}
  m_PrefabInstance: {fileID: 0}
  m_PrefabAsset: {fileID: 0}
  serializedVersion: 6
  m_Component:
  - component: {fileID: 4088779761334020595}
  - component: {fileID: 4088779761334020553}
  - component: {fileID: 4088779761334020559}
  - component: {fileID: 4088779761334020557}
  - component: {fileID: 831789001184206837}
  m_Layer: 5
  m_Name: UICanvas
  m_TagString: Untagged
  m_Icon: {fileID: 0}
  m_NavMeshLayer: 0
  m_StaticEditorFlags: 0
  m_IsActive: 1
--- !u!224 &4088779761334020595
RectTransform:
  m_ObjectHideFlags: 0
  m_CorrespondingSourceObject: {fileID: 0}
  m_PrefabInstance: {fileID: 0}
  m_PrefabAsset: {fileID: 0}
  m_GameObject: {fileID: 4088779761334020594}
  m_LocalRotation: {x: 0.7071068, y: -0, z: -0, w: 0.7071068}
  m_LocalPosition: {x: 0, y: 0, z: 0.0072}
  m_LocalScale: {x: 0.01158229, y: 0.011932726, z: 0.07648772}
  m_Children:
  - {fileID: 4088779762844692888}
  m_Father: {fileID: 1775954853}
  m_RootOrder: 0
  m_LocalEulerAnglesHint: {x: 90, y: 0, z: 0}
  m_AnchorMin: {x: 0, y: 0}
  m_AnchorMax: {x: 0, y: 0}
  m_AnchoredPosition: {x: -0.0052, y: 1.019}
  m_SizeDelta: {x: 86.5477, y: 83.666}
  m_Pivot: {x: 0.5, y: 0.5}
--- !u!1 &4088779761871015611
GameObject:
  m_ObjectHideFlags: 0
  m_CorrespondingSourceObject: {fileID: 0}
  m_PrefabInstance: {fileID: 0}
  m_PrefabAsset: {fileID: 0}
  serializedVersion: 6
  m_Component:
  - component: {fileID: 4088779761871015612}
  - component: {fileID: 4088779761871015614}
  - component: {fileID: 8858460719616699827}
  m_Layer: 5
  m_Name: Text
  m_TagString: Untagged
  m_Icon: {fileID: 0}
  m_NavMeshLayer: 0
  m_StaticEditorFlags: 0
  m_IsActive: 1
--- !u!224 &4088779761871015612
RectTransform:
  m_ObjectHideFlags: 0
  m_CorrespondingSourceObject: {fileID: 0}
  m_PrefabInstance: {fileID: 0}
  m_PrefabAsset: {fileID: 0}
  m_GameObject: {fileID: 4088779761871015611}
  m_LocalRotation: {x: 0, y: 0.00000016048051, z: 0, w: 1}
  m_LocalPosition: {x: 0, y: 0, z: 0}
  m_LocalScale: {x: 1, y: 1, z: 1}
  m_Children: []
  m_Father: {fileID: 4088779762306635479}
  m_RootOrder: 0
  m_LocalEulerAnglesHint: {x: 0, y: 0, z: 0}
  m_AnchorMin: {x: 0, y: 0}
  m_AnchorMax: {x: 1, y: 1}
  m_AnchoredPosition: {x: 0, y: 0}
  m_SizeDelta: {x: 0, y: -0.000000059604645}
  m_Pivot: {x: -0.1, y: 1.1}
--- !u!222 &4088779761871015614
CanvasRenderer:
  m_ObjectHideFlags: 0
  m_CorrespondingSourceObject: {fileID: 0}
  m_PrefabInstance: {fileID: 0}
  m_PrefabAsset: {fileID: 0}
  m_GameObject: {fileID: 4088779761871015611}
  m_CullTransparentMesh: 0
--- !u!1 &4088779762306635478
GameObject:
  m_ObjectHideFlags: 0
  m_CorrespondingSourceObject: {fileID: 0}
  m_PrefabInstance: {fileID: 0}
  m_PrefabAsset: {fileID: 0}
  serializedVersion: 6
  m_Component:
  - component: {fileID: 4088779762306635479}
  - component: {fileID: 4088779762306635501}
  - component: {fileID: 4088779762306635499}
  - component: {fileID: 4088779762306635497}
  - component: {fileID: 831789002156695761}
  m_Layer: 5
  m_Name: UICanvas
  m_TagString: Untagged
  m_Icon: {fileID: 0}
  m_NavMeshLayer: 0
  m_StaticEditorFlags: 0
  m_IsActive: 1
--- !u!224 &4088779762306635479
RectTransform:
  m_ObjectHideFlags: 0
  m_CorrespondingSourceObject: {fileID: 0}
  m_PrefabInstance: {fileID: 0}
  m_PrefabAsset: {fileID: 0}
  m_GameObject: {fileID: 4088779762306635478}
  m_LocalRotation: {x: 0.7071068, y: -0, z: -0, w: 0.7071068}
  m_LocalPosition: {x: 0, y: 0, z: 0.0006}
  m_LocalScale: {x: 0.01158229, y: 0.011932726, z: 0.07648772}
  m_Children:
  - {fileID: 4088779761871015612}
  m_Father: {fileID: 273728236}
  m_RootOrder: 0
  m_LocalEulerAnglesHint: {x: 90, y: 0, z: 0}
  m_AnchorMin: {x: 0, y: 0}
  m_AnchorMax: {x: 0, y: 0}
  m_AnchoredPosition: {x: -0.0062, y: 1.019}
  m_SizeDelta: {x: 86.1321, y: 83.613}
  m_Pivot: {x: 0.5, y: 0.5}
--- !u!222 &4088779762306635497
CanvasRenderer:
  m_ObjectHideFlags: 0
  m_CorrespondingSourceObject: {fileID: 0}
  m_PrefabInstance: {fileID: 0}
  m_PrefabAsset: {fileID: 0}
  m_GameObject: {fileID: 4088779762306635478}
  m_CullTransparentMesh: 0
--- !u!114 &4088779762306635499
MonoBehaviour:
  m_ObjectHideFlags: 0
  m_CorrespondingSourceObject: {fileID: 0}
  m_PrefabInstance: {fileID: 0}
  m_PrefabAsset: {fileID: 0}
  m_GameObject: {fileID: 4088779762306635478}
  m_Enabled: 0
  m_EditorHideFlags: 0
  m_Script: {fileID: 11500000, guid: 7aaf960227867044282d921171d2d7ac, type: 3}
  m_Name: 
  m_EditorClassIdentifier: 
  m_IgnoreReversedGraphics: 1
  m_BlockingObjects: 3
  m_BlockingMask:
    serializedVersion: 2
    m_Bits: 4294967295
  pointer: {fileID: 0}
  sortOrder: 0
--- !u!223 &4088779762306635501
Canvas:
  m_ObjectHideFlags: 0
  m_CorrespondingSourceObject: {fileID: 0}
  m_PrefabInstance: {fileID: 0}
  m_PrefabAsset: {fileID: 0}
  m_GameObject: {fileID: 4088779762306635478}
  m_Enabled: 1
  serializedVersion: 3
  m_RenderMode: 2
  m_Camera: {fileID: 0}
  m_PlaneDistance: 100
  m_PixelPerfect: 0
  m_ReceivesEvents: 1
  m_OverrideSorting: 0
  m_OverridePixelPerfect: 0
  m_SortingBucketNormalizedSize: 0
  m_AdditionalShaderChannelsFlag: 25
  m_SortingLayerID: 0
  m_SortingOrder: -100
  m_TargetDisplay: 0
--- !u!224 &4088779762844692888
RectTransform:
  m_ObjectHideFlags: 0
  m_CorrespondingSourceObject: {fileID: 0}
  m_PrefabInstance: {fileID: 0}
  m_PrefabAsset: {fileID: 0}
  m_GameObject: {fileID: 4088779762844692895}
  m_LocalRotation: {x: 0, y: 0.00000016048051, z: 0, w: 1}
  m_LocalPosition: {x: 0, y: 0, z: 0}
  m_LocalScale: {x: 1, y: 1, z: 1}
  m_Children: []
  m_Father: {fileID: 4088779761334020595}
  m_RootOrder: 0
  m_LocalEulerAnglesHint: {x: 0, y: 0, z: 0}
  m_AnchorMin: {x: 0, y: 0}
  m_AnchorMax: {x: 1, y: 1}
  m_AnchoredPosition: {x: 0, y: 0}
  m_SizeDelta: {x: 0, y: -0.000000059604645}
  m_Pivot: {x: -0.1, y: 1.1}
--- !u!222 &4088779762844692890
CanvasRenderer:
  m_ObjectHideFlags: 0
  m_CorrespondingSourceObject: {fileID: 0}
  m_PrefabInstance: {fileID: 0}
  m_PrefabAsset: {fileID: 0}
  m_GameObject: {fileID: 4088779762844692895}
  m_CullTransparentMesh: 0
--- !u!1 &4088779762844692895
GameObject:
  m_ObjectHideFlags: 0
  m_CorrespondingSourceObject: {fileID: 0}
  m_PrefabInstance: {fileID: 0}
  m_PrefabAsset: {fileID: 0}
  serializedVersion: 6
  m_Component:
  - component: {fileID: 4088779762844692888}
  - component: {fileID: 4088779762844692890}
  - component: {fileID: 8858460720791556759}
  m_Layer: 5
  m_Name: Text
  m_TagString: Untagged
  m_Icon: {fileID: 0}
  m_NavMeshLayer: 0
  m_StaticEditorFlags: 0
  m_IsActive: 1
--- !u!1001 &5122045711986029796
PrefabInstance:
  m_ObjectHideFlags: 0
  serializedVersion: 2
  m_Modification:
    m_TransformParent: {fileID: 1682325115}
    m_Modifications:
    - target: {fileID: 364518689470124506, guid: 624ef7d780846b342988732cbb919663,
        type: 3}
      propertyPath: onButtonDown.m_PersistentCalls.m_Calls.Array.size
      value: 1
      objectReference: {fileID: 0}
    - target: {fileID: 364518689470124506, guid: 624ef7d780846b342988732cbb919663,
        type: 3}
      propertyPath: onButtonDown.m_PersistentCalls.m_Calls.Array.data[0].m_Mode
      value: 1
      objectReference: {fileID: 0}
    - target: {fileID: 364518689470124506, guid: 624ef7d780846b342988732cbb919663,
        type: 3}
      propertyPath: onButtonDown.m_PersistentCalls.m_Calls.Array.data[0].m_CallState
      value: 2
      objectReference: {fileID: 0}
    - target: {fileID: 364518689470124506, guid: 624ef7d780846b342988732cbb919663,
        type: 3}
      propertyPath: onButtonDown.m_PersistentCalls.m_Calls.Array.data[0].m_Target
      value: 
      objectReference: {fileID: 1394665952}
    - target: {fileID: 364518689470124506, guid: 624ef7d780846b342988732cbb919663,
        type: 3}
      propertyPath: onButtonDown.m_PersistentCalls.m_Calls.Array.data[0].m_MethodName
      value: TogglePinchMode
      objectReference: {fileID: 0}
    - target: {fileID: 364518689470124506, guid: 624ef7d780846b342988732cbb919663,
        type: 3}
      propertyPath: onButtonDown.m_PersistentCalls.m_Calls.Array.data[0].m_Arguments.m_ObjectArgumentAssemblyTypeName
      value: UnityEngine.Object, UnityEngine
      objectReference: {fileID: 0}
    - target: {fileID: 6396212367946863588, guid: 624ef7d780846b342988732cbb919663,
        type: 3}
      propertyPath: m_Name
      value: ButtonPinchToggle
      objectReference: {fileID: 0}
    - target: {fileID: 6396212367946863591, guid: 624ef7d780846b342988732cbb919663,
        type: 3}
      propertyPath: m_LocalPosition.x
      value: -0.38367322
      objectReference: {fileID: 0}
    - target: {fileID: 6396212367946863591, guid: 624ef7d780846b342988732cbb919663,
        type: 3}
      propertyPath: m_LocalPosition.y
      value: -0.20718594
      objectReference: {fileID: 0}
    - target: {fileID: 6396212367946863591, guid: 624ef7d780846b342988732cbb919663,
        type: 3}
      propertyPath: m_LocalPosition.z
      value: -0.017677486
      objectReference: {fileID: 0}
    - target: {fileID: 6396212367946863591, guid: 624ef7d780846b342988732cbb919663,
        type: 3}
      propertyPath: m_LocalRotation.x
      value: -0.4854043
      objectReference: {fileID: 0}
    - target: {fileID: 6396212367946863591, guid: 624ef7d780846b342988732cbb919663,
        type: 3}
      propertyPath: m_LocalRotation.y
      value: -0.2603926
      objectReference: {fileID: 0}
    - target: {fileID: 6396212367946863591, guid: 624ef7d780846b342988732cbb919663,
        type: 3}
      propertyPath: m_LocalRotation.z
      value: -0.20244002
      objectReference: {fileID: 0}
    - target: {fileID: 6396212367946863591, guid: 624ef7d780846b342988732cbb919663,
        type: 3}
      propertyPath: m_LocalRotation.w
      value: 0.80968916
      objectReference: {fileID: 0}
    - target: {fileID: 6396212367946863591, guid: 624ef7d780846b342988732cbb919663,
        type: 3}
      propertyPath: m_RootOrder
      value: 10
      objectReference: {fileID: 0}
    - target: {fileID: 6396212367946863591, guid: 624ef7d780846b342988732cbb919663,
        type: 3}
      propertyPath: m_LocalEulerAnglesHint.x
      value: -63.06
      objectReference: {fileID: 0}
    - target: {fileID: 6396212367946863591, guid: 624ef7d780846b342988732cbb919663,
        type: 3}
      propertyPath: m_LocalEulerAnglesHint.y
      value: -29.798002
      objectReference: {fileID: 0}
    - target: {fileID: 6396212367946863591, guid: 624ef7d780846b342988732cbb919663,
        type: 3}
      propertyPath: m_LocalEulerAnglesHint.z
      value: -9.533
      objectReference: {fileID: 0}
    - target: {fileID: 6396212367946863591, guid: 624ef7d780846b342988732cbb919663,
        type: 3}
      propertyPath: m_LocalScale.x
      value: 0.75
      objectReference: {fileID: 0}
    - target: {fileID: 6396212367946863591, guid: 624ef7d780846b342988732cbb919663,
        type: 3}
      propertyPath: m_LocalScale.y
      value: 0.75
      objectReference: {fileID: 0}
    - target: {fileID: 6396212367946863591, guid: 624ef7d780846b342988732cbb919663,
        type: 3}
      propertyPath: m_LocalScale.z
      value: 0.75
      objectReference: {fileID: 0}
    m_RemovedComponents:
    - {fileID: 364518690687372469, guid: 624ef7d780846b342988732cbb919663, type: 3}
  m_SourcePrefab: {fileID: 100100000, guid: 624ef7d780846b342988732cbb919663, type: 3}
--- !u!114 &8858460719616699827
MonoBehaviour:
  m_ObjectHideFlags: 0
  m_CorrespondingSourceObject: {fileID: 0}
  m_PrefabInstance: {fileID: 0}
  m_PrefabAsset: {fileID: 0}
  m_GameObject: {fileID: 4088779761871015611}
  m_Enabled: 1
  m_EditorHideFlags: 0
  m_Script: {fileID: 11500000, guid: 5f7201a12d95ffc409449d95f23cf332, type: 3}
  m_Name: 
  m_EditorClassIdentifier: 
  m_Material: {fileID: 0}
  m_Color: {r: 1, g: 1, b: 1, a: 1}
  m_RaycastTarget: 0
  m_Maskable: 1
  m_OnCullStateChanged:
    m_PersistentCalls:
      m_Calls: []
  m_FontData:
    m_Font: {fileID: 12800000, guid: 0ebbcec4dd8e2f040b163f10df7e8382, type: 3}
    m_FontSize: 22
    m_FontStyle: 0
    m_BestFit: 0
    m_MinSize: 10
    m_MaxSize: 40
    m_Alignment: 4
    m_AlignByGeometry: 0
    m_RichText: 1
    m_HorizontalOverflow: 0
    m_VerticalOverflow: 0
    m_LineSpacing: 1
  m_Text: RESET
--- !u!114 &8858460720791556759
MonoBehaviour:
  m_ObjectHideFlags: 0
  m_CorrespondingSourceObject: {fileID: 0}
  m_PrefabInstance: {fileID: 0}
  m_PrefabAsset: {fileID: 0}
  m_GameObject: {fileID: 4088779762844692895}
  m_Enabled: 1
  m_EditorHideFlags: 0
  m_Script: {fileID: 11500000, guid: 5f7201a12d95ffc409449d95f23cf332, type: 3}
  m_Name: 
  m_EditorClassIdentifier: 
  m_Material: {fileID: 0}
  m_Color: {r: 1, g: 1, b: 1, a: 1}
  m_RaycastTarget: 0
  m_Maskable: 1
  m_OnCullStateChanged:
    m_PersistentCalls:
      m_Calls: []
  m_FontData:
    m_Font: {fileID: 12800000, guid: 0ebbcec4dd8e2f040b163f10df7e8382, type: 3}
    m_FontSize: 22
    m_FontStyle: 0
    m_BestFit: 0
    m_MinSize: 10
    m_MaxSize: 40
    m_Alignment: 4
    m_AlignByGeometry: 0
    m_RichText: 1
    m_HorizontalOverflow: 0
    m_VerticalOverflow: 0
    m_LineSpacing: 1
  m_Text: Pinch Draw
